enhanceCount,0,1,2,3,4,5,6,7,8,9,10,11,12,13,14,15,16,17,18,19,20,21,22,23
0,0.021,0.03,0.045,0.06,0.105,0.15,0.24,0.36,0.51,0.72,0.99,1.38,2.4,4.5,7.5,12,30,45,72,90,300,540,900,3000
1,0.029,0.041,0.062,0.083,0.144,0.206,0.33,0.495,0.701,0.99,1.361,1.898,3.3,6.188,10.313,16.5,41.25,61.875,99,123.75,412.5,742.5,1237.5,4125
2,0.036,0.051,0.077,0.103,0.179,0.256,0.41,0.615,0.871,1.23,1.691,2.358,4.1,7.688,12.813,20.5,51.25,76.875,123,153.75,512.5,922.5,1537.5,5125
3,0.042,0.06,0.091,0.121,0.211,0.301,0.482,0.723,1.024,1.446,1.988,2.772,4.82,9.038,15.063,24.1,60.25,90.375,144.6,180.75,602.5,1084.5,1807.5,6025
4,0.048,0.068,0.103,0.137,0.24,0.342,0.547,0.821,1.163,1.642,2.258,3.148,5.475,10.265,17.108,27.373,68.432,102.648,164.236,205.295,684.318,1231.773,2052.955,6843.182
5,0.053,0.076,0.114,0.152,0.266,0.38,0.607,0.911,1.291,1.822,2.506,3.493,6.075,11.39,18.983,30.373,75.932,113.898,182.236,227.795,759.318,1366.773,2277.955,7593.182
6,0.058,0.083,0.124,0.166,0.29,0.415,0.662,0.994,1.409,1.988,2.734,3.811,6.629,12.428,20.714,33.142,82.855,124.283,198.851,248.564,828.549,1491.388,2485.647,8285.49
7,0.063,0.089,0.134,0.179,0.313,0.447,0.713,1.071,1.518,2.142,2.946,4.107,7.143,13.392,22.321,35.713,89.284,133.926,214.28,267.85,892.835,1607.102,2678.504,8928.347
8,0.067,0.095,0.143,0.191,0.334,0.477,0.761,1.143,1.62,2.286,3.144,4.383,7.623,14.292,23.821,38.113,95.284,142.926,228.68,285.85,952.835,1715.102,2858.504,9528.347
9,0.071,0.101,0.151,0.202,0.354,0.505,0.806,1.211,1.716,2.421,3.33,4.642,8.073,15.136,25.227,40.363,100.909,151.364,242.18,302.725,1009.085,1816.352,3027.254,10090.847
10,0.075,0.106,0.159,0.213,0.373,0.531,0.848,1.275,1.806,2.548,3.505,4.886,8.497,15.93,26.551,42.481,106.203,159.305,254.886,318.607,1062.026,1911.646,3186.078,10620.259
11,0.079,0.111,0.167,0.223,0.391,0.556,0.888,1.335,1.891,2.668,3.67,5.116,8.897,16.68,27.801,44.481,111.203,166.805,266.886,333.607,1112.026,2001.646,3336.078,11120.259
12,0.082,0.116,0.174,0.232,0.408,0.58,0.926,1.392,1.972,2.782,3.826,5.334,9.276,17.391,28.985,46.376,115.94,173.91,278.254,347.818,1159.394,2086.909,3478.183,11593.943
13,0.085,0.121,0.181,0.241,0.424,0.603,0.962,1.446,2.049,2.89,3.975,5.541,9.636,18.066,30.11,48.176,120.44,180.66,289.054,361.318,1204.394,2167.909,3613.183,12043.943
14,0.088,0.125,0.187,0.25,0.439,0.624,0.996,1.497,2.122,2.993,4.116,5.738,9.979,18.709,31.181,49.89,124.726,187.089,299.34,374.175,1247.251,2245.052,3741.754,12472.514
15,0.091,0.129,0.193,0.258,0.453,0.644,1.029,1.546,2.192,3.091,4.251,5.926,10.306,19.323,32.204,51.526,128.817,193.225,309.158,386.448,1288.16,2318.688,3864.481,12881.605
16,0.094,0.133,0.199,0.266,0.467,0.664,1.06,1.593,2.259,3.185,4.38,6.106,10.619,19.91,33.182,53.091,132.73,199.095,318.549,398.187,1327.29,2389.123,3981.872,13272.909
17,0.097,0.137,0.205,0.274,0.48,0.683,1.09,1.638,2.323,3.275,4.504,6.279,10.919,20.473,34.12,54.591,136.48,204.72,327.549,409.437,1364.79,2456.623,4094.372,13647.909
18,0.1,0.141,0.21,0.281,0.493,0.701,1.119,1.681,2.384,3.361,4.623,6.445,11.207,21.013,35.02,56.031,140.08,210.12,336.189,420.237,1400.79,2521.423,4202.372,14007.909
19,0.102,0.144,0.215,0.288,0.505,0.718,1.147,1.723,2.443,3.444,4.737,6.604,11.484,21.532,35.885,57.416,143.542,215.312,344.497,430.622,1435.405,2583.731,4306.218,14354.063
20,0.104,0.147,0.22,0.295,0.517,0.735,1.174,1.763,2.5,3.524,4.847,6.757,11.751,22.032,36.718,58.749,146.875,220.312,352.497,440.622,1468.738,2643.731,4406.218,14687.396
21,0.106,0.15,0.225,0.301,0.528,0.751,1.2,1.802,2.555,3.601,4.953,6.905,12.008,22.514,37.522,60.035,150.089,225.133,360.211,450.265,1500.881,2701.588,4502.647,15008.825
22,0.108,0.153,0.23,0.307,0.539,0.767,1.225,1.839,2.608,3.675,5.055,7.048,12.256,22.98,38.298,61.276,153.192,229.788,367.659,459.575,1531.915,2757.45,4595.75,15319.17
23,0.11,0.156,0.235,0.313,0.55,0.782,1.249,1.875,2.659,3.747,5.154,7.186,12.496,23.43,39.048,62.476,156.192,234.288,374.859,468.575,1561.915,2811.45,4685.75,15619.17
24,0.112,0.159,0.239,0.319,0.56,0.797,1.272,1.91,2.708,3.817,5.25,7.32,12.728,23.865,39.774,63.637,159.095,238.643,381.827,477.285,1590.947,2863.708,4772.847,15909.493
25,0.114,0.162,0.243,0.325,0.57,0.811,1.295,1.944,2.756,3.885,5.343,7.449,12.953,24.287,40.477,64.762,161.908,242.862,388.577,485.723,1619.072,2914.333,4857.222,16190.743
26,0.116,0.165,0.247,0.33,0.58,0.825,1.317,1.977,2.802,3.95,5.433,7.574,13.171,24.696,41.159,65.853,164.635,246.953,395.122,493.905,1646.345,2963.424,4939.04,16463.47
27,0.118,0.168,0.251,0.335,0.589,0.838,1.338,2.009,2.847,4.014,5.52,7.696,13.383,25.093,41.821,66.912,167.282,250.924,401.475,501.846,1672.816,3011.071,5018.452,16728.176
28,0.12,0.171,0.255,0.34,0.598,0.851,1.359,2.04,2.891,4.076,5.605,7.814,13.589,25.479,42.464,67.941,169.853,254.781,407.646,509.56,1698.53,3057.357,5095.595,16985.319
29,0.122,0.174,0.259,0.345,0.607,0.864,1.379,2.07,2.934,4.136,5.688,7.929,13.789,25.854,43.089,68.941,172.353,258.531,413.646,517.06,1723.53,3102.357,5170.595,17235.319
30,0.124,0.176,0.263,0.35,0.616,0.876,1.398,2.099,2.975,4.194,5.768,8.041,13.984,26.219,43.697,69.914,174.785,262.18,419.484,524.357,1747.854,3146.141,5243.568,17478.562
31,0.126,0.178,0.267,0.355,0.624,0.888,1.417,2.127,3.015,4.251,5.846,8.15,14.173,26.574,44.289,70.861,177.153,265.733,425.168,531.462,1771.538,3188.773,5314.621,17715.404
32,0.128,0.18,0.27,0.36,0.632,0.9,1.435,2.155,3.054,4.306,5.922,8.256,14.358,26.92,44.866,71.784,179.461,269.195,430.706,538.385,1794.615,3230.311,5383.852,17946.173
33,0.13,0.182,0.273,0.365,0.64,0.911,1.453,2.182,3.092,4.36,5.996,8.36,14.538,27.258,45.429,72.684,181.711,272.57,436.106,545.135,1817.115,3270.811,5451.352,18171.173
34,0.132,0.184,0.276,0.369,0.648,0.922,1.471,2.208,3.129,4.413,6.068,8.461,14.714,27.587,45.978,73.562,183.906,275.863,441.374,551.72,1839.066,3310.323,5517.206,18390.685
35,0.134,0.186,0.279,0.373,0.656,0.933,1.488,2.234,3.165,4.464,6.139,8.56,14.885,27.908,46.514,74.419,186.049,279.077,446.517,558.149,1860.495,3348.894,5581.492,18604.971
36,0.135,0.188,0.282,0.377,0.663,0.943,1.505,2.259,3.201,4.514,6.208,8.656,15.052,28.222,47.037,75.256,188.142,282.217,451.54,564.428,1881.425,3386.568,5644.283,18814.273
37,0.136,0.19,0.285,0.381,0.67,0.953,1.521,2.284,3.236,4.563,6.276,8.75,15.216,28.529,47.548,76.074,190.187,285.285,456.449,570.564,1901.88,3423.386,5705.647,19018.818
38,0.137,0.192,0.288,0.385,0.677,0.963,1.537,2.308,3.27,4.611,6.342,8.842,15.376,28.829,48.048,76.874,192.187,288.285,461.249,576.564,1921.88,3459.386,5765.647,19218.818
39,0.138,0.194,0.291,0.389,0.684,0.973,1.553,2.331,3.303,4.658,6.407,8.932,15.533,29.122,48.537,77.657,194.144,291.22,465.945,582.434,1941.445,3494.603,5824.343,19414.47
40,0.139,0.196,0.294,0.393,0.691,0.983,1.568,2.354,3.336,4.704,6.47,9.02,15.686,29.409,49.016,78.423,196.059,294.092,470.541,588.179,1960.594,3529.071,5881.79,19605.959
41,0.14,0.198,0.297,0.397,0.698,0.992,1.583,2.377,3.368,4.749,6.532,9.106,15.836,29.69,49.485,79.173,197.934,296.905,475.041,593.804,1979.344,3562.821,5938.04,19793.459
42,0.141,0.2,0.3,0.401,0.704,1.001,1.598,2.399,3.399,4.793,6.593,9.19,15.983,29.966,49.944,79.908,199.771,299.66,479.449,599.314,1997.711,3595.882,5993.142,19977.132
43,0.142,0.202,0.303,0.405,0.71,1.01,1.612,2.421,3.43,4.836,6.652,9.273,16.127,30.236,50.394,80.628,201.571,302.36,483.769,604.714,2015.711,3628.282,6047.142,20157.132
44,0.143,0.204,0.306,0.409,0.716,1.019,1.626,2.442,3.46,4.878,6.71,9.354,16.268,30.501,50.835,81.334,203.336,305.007,488.004,610.008,2033.358,3660.047,6100.083,20333.603
45,0.144,0.206,0.309,0.412,0.722,1.028,1.64,2.463,3.489,4.92,6.767,9.434,16.406,30.761,51.268,82.026,205.067,307.603,492.158,615.2,2050.666,3691.201,6152.006,20506.68
46,0.145,0.208,0.312,0.415,0.728,1.036,1.654,2.483,3.518,4.961,6.823,9.512,16.542,31.016,51.693,82.705,206.765,310.15,496.233,620.294,2067.647,3721.767,6202.949,20676.491
47,0.146,0.21,0.315,0.418,0.734,1.044,1.667,2.503,3.546,5.001,6.878,9.589,16.675,31.266,52.11,83.372,208.432,312.65,500.233,625.294,2084.314,3751.767,6252.949,20843.158
48,0.147,0.212,0.317,0.421,0.74,1.052,1.68,2.523,3.574,5.04,6.932,9.664,16.806,31.511,52.519,84.027,210.068,315.105,504.16,630.203,2100.678,3781.222,6302.04,21006.794
49,0.148,0.214,0.319,0.424,0.746,1.06,1.693,2.542,3.601,5.079,6.985,9.738,16.935,31.752,52.921,84.67,211.675,317.516,508.017,635.024,2116.749,3810.151,6350.254,21167.508
50,0.149,0.216,0.321,0.427,0.752,1.068,1.706,2.561,3.628,5.117,7.037,9.811,17.061,31.989,53.316,85.302,213.254,319.884,511.806,639.761,2132.538,3838.572,6397.622,21325.403
51,0.15,0.218,0.323,0.43,0.757,1.076,1.718,2.58,3.654,5.154,7.088,9.882,17.185,32.222,53.704,85.923,214.806,322.212,515.53,644.416,2148.055,3866.503,6444.174,21480.575
52,0.151,0.22,0.325,0.433,0.762,1.084,1.73,2.598,3.68,5.191,7.138,9.952,17.307,32.451,54.085,86.533,216.331,324.5,519.191,648.992,2163.309,3893.961,6489.937,21633.117
53,0.152,0.222,0.327,0.436,0.767,1.092,1.742,2.616,3.706,5.227,7.188,10.021,17.427,32.676,54.46,87.133,217.831,326.75,522.791,653.492,2178.309,3920.961,6534.937,21783.117
54,0.153,0.223,0.329,0.439,0.772,1.099,1.754,2.634,3.731,5.262,7.237,10.089,17.545,32.897,54.829,87.723,219.306,328.963,526.332,657.918,2193.063,3947.518,6579.199,21930.658
55,0.154,0.224,0.331,0.442,0.777,1.106,1.766,2.651,3.756,5.297,7.285,10.156,17.661,33.115,55.192,88.304,220.758,331.14,529.816,662.273,2207.579,3973.647,6622.747,22075.819
56,0.155,0.225,0.333,0.445,0.782,1.113,1.777,2.668,3.78,5.331,7.332,10.222,17.775,33.329,55.549,88.875,222.187,333.283,533.245,666.559,2221.865,3999.361,6665.604,22218.676
57,0.156,0.226,0.335,0.448,0.787,1.12,1.788,2.685,3.804,5.365,7.378,10.287,17.888,33.54,55.901,89.438,223.593,335.392,536.62,670.778,2235.928,4024.674,6707.792,22359.301
58,0.157,0.227,0.337,0.451,0.792,1.127,1.799,2.702,3.828,5.398,7.424,10.351,17.999,33.748,56.247,89.992,224.978,337.469,539.943,674.932,2249.774,4049.597,6749.33,22497.763
59,0.158,0.228,0.339,0.454,0.797,1.134,1.81,2.718,3.851,5.431,7.469,10.414,18.108,33.953,56.588,90.537,226.342,339.514,543.216,679.023,2263.41,4074.142,6790.239,22634.127
60,0.159,0.229,0.341,0.457,0.802,1.141,1.821,2.734,3.874,5.463,7.513,10.476,18.215,34.154,56.924,91.074,227.685,341.529,546.44,683.053,2276.843,4098.321,6830.538,22768.455
61,0.16,0.23,0.343,0.46,0.807,1.148,1.832,2.75,3.897,5.495,7.557,10.537,18.321,34.353,57.255,91.603,229.009,343.514,549.616,687.024,2290.078,4122.145,6870.244,22900.808
62,0.161,0.231,0.345,0.463,0.812,1.155,1.842,2.766,3.919,5.526,7.6,10.597,18.425,34.549,57.581,92.125,230.313,345.471,552.746,690.937,2303.121,4145.623,6909.374,23031.243
63,0.162,0.232,0.347,0.466,0.817,1.161,1.852,2.781,3.941,5.557,7.642,10.656,18.528,34.742,57.902,92.639,231.599,347.4,555.832,694.794,2315.978,4168.766,6947.945,23159.814
64,0.163,0.233,0.349,0.469,0.821,1.167,1.862,2.796,3.963,5.587,7.684,10.714,18.629,34.932,58.219,93.146,232.867,349.301,558.874,698.597,2328.654,4191.583,6985.973,23286.575
65,0.164,0.234,0.351,0.472,0.825,1.173,1.872,2.811,3.984,5.617,7.725,10.772,18.729,35.12,58.532,93.646,234.117,351.176,561.874,702.347,2341.154,4214.083,7023.473,23411.575
66,0.165,0.235,0.353,0.474,0.829,1.179,1.882,2.826,4.005,5.647,7.766,10.829,18.828,35.305,58.84,94.139,235.35,353.025,564.833,706.046,2353.483,4236.275,7060.459,23534.863
67,0.166,0.236,0.355,0.476,0.833,1.185,1.892,2.841,4.026,5.676,7.806,10.885,18.925,35.487,59.144,94.625,236.566,354.849,567.752,709.695,2365.645,4258.167,7096.945,23656.485
68,0.167,0.237,0.357,0.478,0.837,1.191,1.902,2.855,4.046,5.705,7.846,10.94,19.021,35.667,59.444,95.105,237.766,356.649,570.632,713.295,2377.645,4279.767,7132.945,23776.485
69,0.168,0.238,0.359,0.48,0.841,1.197,1.911,2.869,4.066,5.733,7.885,10.994,19.116,35.845,59.74,95.579,238.95,358.425,573.474,716.848,2389.487,4301.083,7168.471,23894.906
70,0.169,0.239,0.361,0.482,0.845,1.203,1.92,2.883,4.086,5.761,7.924,11.048,19.21,36.02,60.032,96.047,240.119,360.178,576.279,720.354,2401.175,4322.122,7203.536,24011.789
71,0.17,0.24,0.363,0.484,0.849,1.209,1.929,2.897,4.106,5.789,7.962,11.101,19.302,36.193,60.32,96.509,241.273,361.909,579.048,723.816,2412.713,4342.891,7238.151,24127.174
72,0.171,0.241,0.365,0.486,0.853,1.215,1.938,2.911,4.125,5.816,8,11.153,19.393,36.364,60.605,96.965,242.412,363.618,581.782,727.234,2424.105,4363.397,7272.328,24241.098
73,0.172,0.242,0.367,0.488,0.857,1.221,1.947,2.925,4.144,5.843,8.037,11.205,19.483,36.533,60.886,97.415,243.537,365.306,584.482,730.609,2435.355,4383.647,7306.078,24353.598
74,0.173,0.243,0.369,0.49,0.861,1.227,1.956,2.938,4.163,5.87,8.074,11.256,19.572,36.7,61.164,97.859,244.648,366.973,587.149,733.942,2446.466,4403.647,7339.411,24464.709
75,0.174,0.244,0.371,0.492,0.865,1.232,1.965,2.951,4.182,5.896,8.11,11.306,19.66,36.865,61.438,98.298,245.746,368.619,589.783,737.235,2457.442,4423.403,7372.338,24574.465
76,0.175,0.245,0.373,0.494,0.869,1.237,1.974,2.964,4.2,5.922,8.146,11.356,19.747,37.028,61.709,98.732,246.83,370.246,592.385,740.488,2468.285,4442.921,7404.868,24682.899
77,0.176,0.246,0.375,0.496,0.873,1.242,1.983,2.977,4.218,5.948,8.181,11.405,19.833,37.189,61.977,99.161,247.901,371.853,594.956,743.702,2478.999,4462.207,7437.011,24790.042
78,0.177,0.247,0.377,0.498,0.877,1.247,1.991,2.99,4.236,5.973,8.216,11.454,19.918,37.348,62.242,99.585,248.96,373.441,597.497,746.878,2489.587,4481.266,7468.776,24895.924
79,0.178,0.248,0.379,0.5,0.881,1.252,1.999,3.003,4.254,5.998,8.251,11.502,20.002,37.505,62.504,100.004,250.007,375.011,600.009,750.018,2500.052,4500.103,7500.171,25000.575
80,0.179,0.249,0.381,0.502,0.885,1.257,2.007,3.015,4.272,6.023,8.285,11.55,20.085,37.66,62.763,100.418,251.041,376.563,602.492,753.121,2510.397,4518.724,7531.205,25104.023
81,0.18,0.25,0.383,0.504,0.889,1.262,2.015,3.027,4.289,6.048,8.319,11.597,20.167,37.813,63.019,100.827,252.064,378.097,604.947,756.189,2520.624,4537.133,7561.887,25206.296
82,0.181,0.251,0.385,0.506,0.893,1.267,2.023,3.039,4.306,6.072,8.352,11.644,20.248,37.965,63.272,101.231,253.075,379.614,607.374,759.223,2530.736,4555.335,7592.224,25307.42
83,0.182,0.252,0.387,0.508,0.897,1.272,2.031,3.051,4.323,6.096,8.385,11.69,20.328,38.115,63.522,101.631,254.075,381.114,609.774,762.223,2540.736,4573.335,7622.224,25407.42
84,0.183,0.253,0.388,0.51,0.9,1.277,2.039,3.063,4.34,6.12,8.418,11.735,20.407,38.263,63.769,102.027,255.064,382.598,612.148,765.19,2550.626,4591.137,7651.894,25506.321
85,0.184,0.254,0.389,0.512,0.903,1.282,2.047,3.075,4.357,6.143,8.45,11.78,20.485,38.41,64.014,102.418,256.042,384.065,614.496,768.125,2560.409,4608.746,7681.242,25604.147
86,0.185,0.255,0.39,0.514,0.906,1.287,2.055,3.087,4.373,6.166,8.482,11.825,20.562,38.555,64.256,102.805,257.01,385.517,616.819,771.028,2570.086,4626.165,7710.274,25700.921
87,0.186,0.256,0.391,0.516,0.909,1.292,2.063,3.098,4.389,6.189,8.514,11.869,20.639,38.699,64.495,103.188,257.967,386.953,619.117,773.9,2579.66,4643.399,7738.997,25796.666
88,0.187,0.257,0.392,0.518,0.912,1.297,2.071,3.109,4.405,6.212,8.545,11.913,20.715,38.841,64.732,103.567,258.914,388.374,621.391,776.742,2589.134,4660.452,7767.418,25891.403
89,0.188,0.258,0.393,0.52,0.915,1.302,2.079,3.12,4.421,6.235,8.576,11.956,20.79,38.982,64.966,103.942,259.852,389.78,623.641,779.555,2598.509,4677.327,7795.543,25985.153
90,0.189,0.259,0.394,0.522,0.918,1.307,2.086,3.131,4.437,6.257,8.607,11.999,20.864,39.121,65.198,104.313,260.78,391.172,625.868,782.339,2607.787,4694.028,7823.378,26077.937
91,0.19,0.26,0.395,0.524,0.921,1.312,2.093,3.142,4.453,6.279,8.637,12.041,20.937,39.259,65.428,104.68,261.698,392.55,628.072,785.094,2616.971,4710.559,7850.929,26169.774
92,0.191,0.261,0.396,0.526,0.924,1.317,2.1,3.153,4.468,6.301,8.667,12.083,21.01,39.395,65.655,105.044,262.607,393.914,630.254,787.821,2626.062,4726.923,7878.202,26260.683
93,0.192,0.262,0.397,0.528,0.927,1.322,2.107,3.164,4.483,6.323,8.697,12.124,21.082,39.53,65.88,105.404,263.507,395.264,632.414,790.521,2635.062,4743.123,7905.202,26350.683
94,0.193,0.263,0.398,0.53,0.93,1.326,2.114,3.175,4.498,6.344,8.726,12.165,21.153,39.664,66.103,105.76,264.398,396.601,634.553,793.194,2643.973,4759.163,7931.935,26439.792
95,0.194,0.264,0.399,0.532,0.933,1.33,2.121,3.186,4.513,6.365,8.755,12.206,21.224,39.796,66.324,106.113,265.28,397.925,636.671,795.841,2652.797,4775.045,7958.406,26528.027
96,0.195,0.265,0.4,0.534,0.936,1.334,2.128,3.196,4.528,6.386,8.784,12.246,21.294,39.927,66.542,106.463,266.154,399.236,638.768,798.462,2661.535,4790.773,7984.62,26615.406
97,0.196,0.266,0.401,0.536,0.939,1.338,2.135,3.206,4.543,6.407,8.813,12.286,21.363,40.057,66.758,106.809,267.019,400.534,640.845,801.058,2670.189,4806.35,8010.582,26701.944
98,0.197,0.267,0.402,0.538,0.942,1.342,2.142,3.216,4.558,6.428,8.841,12.325,21.432,40.186,66.972,107.152,267.876,401.82,642.902,803.629,2678.76,4821.779,8036.296,26787.658
99,0.198,0.268,0.403,0.54,0.945,1.346,2.149,3.226,4.572,6.448,8.869,12.364,21.5,40.313,67.184,107.492,268.725,403.094,644.94,806.176,2687.251,4837.062,8061.768,26872.564
100,0.199,0.269,0.404,0.542,0.948,1.35,2.156,3.236,4.586,6.468,8.897,12.403,21.567,40.439,67.394,107.828,269.566,404.356,646.959,808.699,2695.662,4852.202,8087.002,26956.676
101,0.2,0.27,0.405,0.544,0.951,1.354,2.163,3.246,4.6,6.488,8.925,12.441,21.634,40.564,67.602,108.161,270.399,405.606,648.959,811.199,2703.995,4867.202,8112.002,27040.009
102,0.201,0.271,0.406,0.546,0.954,1.358,2.17,3.256,4.614,6.508,8.952,12.479,21.7,40.688,67.808,108.491,271.225,406.845,650.941,813.676,2712.252,4882.064,8136.773,27122.578
103,0.202,0.272,0.407,0.548,0.957,1.362,2.177,3.266,4.628,6.528,8.979,12.517,21.765,40.811,68.013,108.818,272.043,408.072,652.905,816.131,2720.434,4896.791,8161.318,27204.396
104,0.203,0.273,0.408,0.55,0.96,1.366,2.183,3.276,4.642,6.547,9.006,12.554,21.83,40.933,68.216,109.142,272.854,409.288,654.851,818.563,2728.542,4911.386,8185.642,27285.477
105,0.204,0.274,0.409,0.552,0.963,1.37,2.189,3.286,4.656,6.566,9.033,12.591,21.894,41.054,68.417,109.463,273.658,410.493,656.78,820.974,2736.578,4925.85,8209.749,27365.834
106,0.205,0.275,0.41,0.554,0.966,1.374,2.195,3.296,4.67,6.585,9.059,12.628,21.958,41.173,68.616,109.782,274.454,411.688,658.692,823.363,2744.543,4940.186,8233.643,27445.48
107,0.206,0.276,0.411,0.556,0.969,1.378,2.201,3.305,4.683,6.604,9.085,12.664,22.021,41.291,68.813,110.098,275.243,412.872,660.587,825.731,2752.438,4954.397,8257.327,27524.427
108,0.207,0.277,0.412,0.558,0.972,1.382,2.207,3.314,4.696,6.623,9.111,12.7,22.084,41.408,69.009,110.411,276.026,414.046,662.465,828.079,2760.264,4968.484,8280.805,27602.688
109,0.208,0.278,0.413,0.56,0.975,1.386,2.213,3.323,4.709,6.642,9.137,12.736,22.146,41.524,69.203,110.721,276.802,415.21,664.327,830.407,2768.023,4982.45,8304.081,27680.274
110,0.209,0.279,0.414,0.562,0.978,1.39,2.219,3.332,4.722,6.66,9.162,12.771,22.208,41.639,69.395,111.029,277.571,416.364,666.173,832.715,2775.715,4996.296,8327.158,27757.197
111,0.21,0.28,0.415,0.564,0.981,1.394,2.225,3.341,4.735,6.678,9.187,12.806,22.269,41.753,69.586,111.334,278.334,417.508,668.004,835.003,2783.342,5010.025,8350.039,27833.468
112,0.211,0.281,0.416,0.566,0.984,1.398,2.231,3.35,4.748,6.696,9.212,12.841,22.33,41.866,69.775,111.637,279.09,418.642,669.819,837.272,2790.905,5023.638,8372.728,27909.098
113,0.212,0.282,0.417,0.568,0.987,1.402,2.237,3.359,4.761,6.714,9.237,12.876,22.39,41.979,69.963,111.937,279.84,419.767,671.619,839.522,2798.405,5037.138,8395.228,27984.098
114,0.213,0.283,0.418,0.569,0.99,1.406,2.243,3.368,4.774,6.732,9.262,12.91,22.45,42.091,70.149,112.235,280.584,420.883,673.404,841.753,2805.843,5050.526,8417.542,28058.478
115,0.214,0.284,0.419,0.57,0.993,1.41,2.249,3.377,4.787,6.75,9.286,12.944,22.509,42.202,70.333,112.53,281.322,421.99,675.174,843.966,2813.22,5063.805,8439.673,28132.248
116,0.215,0.285,0.42,0.571,0.996,1.414,2.255,3.386,4.799,6.768,9.31,12.978,22.568,42.312,70.516,112.823,282.054,423.088,676.93,846.161,2820.537,5076.976,8461.624,28205.419
117,0.216,0.286,0.421,0.572,0.999,1.418,2.261,3.395,4.811,6.785,9.334,13.011,22.626,42.421,70.697,113.113,282.78,424.177,678.672,848.338,2827.795,5090.041,8483.398,28278
118,0.217,0.287,0.422,0.573,1.002,1.422,2.267,3.404,4.823,6.802,9.358,13.044,22.684,42.529,70.877,113.401,283.5,425.257,680.4,850.498,2834.995,5103.001,8504.998,28350
119,0.218,0.288,0.423,0.574,1.005,1.426,2.273,3.413,4.835,6.819,9.382,13.077,22.741,42.636,71.056,113.687,284.214,426.328,682.114,852.641,2842.138,5115.858,8526.427,28421.429
120,0.218,0.289,0.424,0.575,1.007,1.43,2.279,3.422,4.847,6.836,9.405,13.11,22.798,42.742,71.233,113.97,284.923,427.391,683.815,854.767,2849.225,5128.614,8547.687,28492.295
121,0.218,0.29,0.425,0.576,1.009,1.434,2.285,3.43,4.859,6.853,9.428,13.142,22.854,42.847,71.409,114.251,285.626,428.446,685.503,856.876,2856.256,5141.27,8568.781,28562.608
122,0.218,0.291,0.426,0.577,1.011,1.437,2.291,3.438,4.871,6.87,9.451,13.174,22.91,42.952,71.583,114.53,286.324,429.493,687.177,858.969,2863.233,5153.828,8589.711,28632.375
123,0.218,0.292,0.427,0.578,1.013,1.44,2.297,3.446,4.883,6.887,9.474,13.206,22.965,43.056,71.756,114.807,287.016,430.531,688.839,861.046,2870.156,5166.29,8610.48,28701.606
124,0.218,0.293,0.428,0.579,1.015,1.443,2.302,3.454,4.895,6.903,9.497,13.238,23.02,43.159,71.928,115.082,287.703,431.562,690.488,863.107,2877.026,5178.656,8631.091,28770.308
125,0.218,0.294,0.429,0.58,1.017,1.446,2.307,3.462,4.907,6.919,9.52,13.269,23.075,43.261,72.098,115.355,288.385,432.585,692.124,865.152,2883.844,5190.929,8651.546,28838.49
126,0.218,0.295,0.43,0.581,1.019,1.449,2.312,3.47,4.919,6.935,9.542,13.3,23.129,43.363,72.267,115.626,289.062,433.6,693.748,867.182,2890.611,5203.109,8671.847,28906.159
127,0.218,0.296,0.431,0.582,1.021,1.452,2.317,3.478,4.93,6.951,9.564,13.331,23.183,43.464,72.435,115.895,289.734,434.607,695.36,869.197,2897.327,5215.199,8691.996,28973.323
128,0.218,0.297,0.432,0.583,1.023,1.455,2.322,3.486,4.941,6.967,9.586,13.362,23.236,43.564,72.602,116.162,290.401,435.607,696.96,871.197,2903.994,5227.199,8711.996,29039.99
129,0.218,0.298,0.433,0.584,1.025,1.458,2.327,3.494,4.952,6.983,9.608,13.392,23.289,43.663,72.767,116.427,291.063,436.6,698.548,873.182,2910.612,5239.111,8731.849,29106.166
130,0.218,0.299,0.434,0.585,1.027,1.461,2.332,3.502,4.963,6.999,9.63,13.422,23.342,43.762,72.931,116.69,291.72,437.585,700.125,875.153,2917.181,5250.936,8751.557,29171.859
131,0.218,0.3,0.435,0.586,1.029,1.464,2.337,3.51,4.974,7.015,9.652,13.452,23.394,43.86,73.094,116.951,292.372,438.563,701.69,877.11,2923.703,5262.675,8771.122,29237.076
132,0.218,0.301,0.436,0.587,1.031,1.467,2.342,3.518,4.985,7.031,9.673,13.482,23.446,43.957,73.256,117.21,293.019,439.534,703.244,879.052,2930.178,5274.33,8790.546,29301.824
133,0.218,0.302,0.437,0.588,1.033,1.47,2.347,3.526,4.996,7.046,9.694,13.512,23.497,44.053,73.417,117.467,293.662,440.498,704.787,880.981,2936.607,5285.901,8809.832,29366.11
134,0.218,0.303,0.438,0.589,1.035,1.473,2.352,3.534,5.007,7.061,9.715,13.541,23.548,44.149,73.577,117.722,294.3,441.455,706.319,882.896,2942.99,5297.39,8828.981,29429.94
135,0.218,0.304,0.439,0.59,1.037,1.476,2.357,3.542,5.018,7.076,9.736,13.57,23.599,44.244,73.735,117.976,294.934,442.406,707.84,884.797,2949.328,5308.798,8847.995,29493.32
136,0.218,0.305,0.44,0.591,1.039,1.479,2.362,3.55,5.029,7.091,9.757,13.599,23.649,44.338,73.892,118.228,295.563,443.35,709.35,886.685,2955.622,5320.127,8866.876,29556.257
137,0.218,0.306,0.441,0.592,1.041,1.482,2.367,3.558,5.04,7.106,9.778,13.628,23.699,44.432,74.048,118.478,296.188,444.288,710.85,888.56,2961.872,5331.377,8885.626,29618.757
138,0.218,0.307,0.442,0.593,1.043,1.485,2.372,3.565,5.051,7.121,9.798,13.657,23.749,44.525,74.203,118.726,296.809,445.219,712.34,890.422,2968.079,5342.549,8904.247,29680.826
139,0.218,0.308,0.443,0.594,1.045,1.488,2.377,3.572,5.061,7.136,9.818,13.685,23.798,44.617,74.357,118.973,297.425,446.144,713.819,892.271,2974.243,5353.645,8922.74,29742.47
140,0.218,0.309,0.444,0.595,1.047,1.491,2.382,3.579,5.071,7.151,9.838,13.713,23.847,44.709,74.51,119.218,298.037,447.062,715.288,894.108,2980.365,5364.665,8941.107,29803.694
141,0.218,0.31,0.445,0.596,1.049,1.494,2.387,3.586,5.081,7.166,9.858,13.741,23.896,44.8,74.662,119.461,298.645,447.974,716.747,895.932,2986.446,5375.611,8959.35,29864.505
142,0.218,0.311,0.446,0.597,1.051,1.497,2.392,3.593,5.091,7.18,9.878,13.769,23.944,44.891,74.813,119.703,299.249,448.88,718.197,897.744,2992.486,5386.483,8977.471,29924.908
143,0.218,0.312,0.447,0.598,1.053,1.5,2.397,3.6,5.101,7.194,9.898,13.797,23.992,44.981,74.963,119.943,299.849,449.78,719.637,899.544,2998.486,5397.283,8995.471,29984.908
144,0.218,0.313,0.448,0.599,1.055,1.503,2.402,3.607,5.111,7.208,9.918,13.824,24.04,45.07,75.112,120.181,300.445,450.674,721.067,901.332,3004.446,5408.011,9013.352,30044.511
145,0.218,0.314,0.449,0.6,1.057,1.506,2.407,3.614,5.121,7.222,9.938,13.851,24.087,45.159,75.26,120.418,301.037,451.562,722.488,903.108,3010.367,5418.669,9031.115,30103.722
146,0.218,0.315,0.45,0.601,1.059,1.509,2.412,3.621,5.131,7.236,9.957,13.878,24.134,45.247,75.407,120.653,301.625,452.444,723.9,904.873,3016.249,5429.257,9048.762,30162.546
147,0.218,0.316,0.451,0.602,1.061,1.512,2.417,3.628,5.141,7.25,9.976,13.905,24.181,45.335,75.553,120.887,302.209,453.321,725.303,906.626,3022.093,5439.776,9066.294,30220.988
148,0.218,0.317,0.452,0.603,1.063,1.515,2.422,3.635,5.151,7.264,9.995,13.932,24.227,45.422,75.698,121.119,302.79,454.192,726.697,908.368,3027.899,5450.228,9083.713,30279.053
149,0.218,0.318,0.453,0.604,1.065,1.518,2.427,3.642,5.161,7.278,10.014,13.959,24.273,45.509,75.842,121.35,303.367,455.057,728.082,910.099,3033.668,5460.613,9101.021,30336.745
150,0.218,0.319,0.454,0.605,1.067,1.521,2.432,3.649,5.171,7.292,10.033,13.985,24.319,45.595,75.985,121.579,303.94,455.917,729.458,911.819,3039.4,5470.931,9118.218,30394.07
151,0.218,0.32,0.455,0.606,1.069,1.524,2.437,3.656,5.181,7.306,10.052,14.011,24.365,45.68,76.127,121.807,304.51,456.771,730.825,913.528,3045.096,5481.184,9135.307,30451.032
152,0.218,0.321,0.456,0.607,1.071,1.527,2.442,3.663,5.191,7.32,10.071,14.037,24.41,45.765,76.269,122.033,305.076,457.62,732.183,915.226,3050.756,5491.373,9152.288,30507.636
153,0.218,0.322,0.457,0.608,1.073,1.53,2.447,3.67,5.201,7.334,10.09,14.063,24.455,45.849,76.41,122.258,305.639,458.464,733.533,916.914,3056.381,5501.498,9169.163,30563.886
154,0.218,0.323,0.458,0.609,1.075,1.533,2.451,3.677,5.211,7.347,10.108,14.089,24.5,45.933,76.55,122.482,306.198,459.303,734.875,918.591,3061.971,5511.56,9185.933,30619.787
155,0.218,0.324,0.459,0.61,1.077,1.536,2.455,3.684,5.22,7.36,10.126,14.115,24.544,46.016,76.689,122.704,306.754,460.136,736.208,920.258,3067.527,5521.56,9202.6,30675.343
156,0.218,0.325,0.46,0.611,1.079,1.539,2.459,3.691,5.229,7.373,10.144,14.14,24.588,46.099,76.827,122.925,307.306,460.964,737.533,921.914,3073.048,5531.499,9219.164,30730.558
157,0.218,0.326,0.461,0.612,1.081,1.542,2.463,3.698,5.238,7.386,10.162,14.165,24.632,46.181,76.964,123.145,307.855,461.787,738.85,923.56,3078.536,5541.377,9235.627,30785.436
158,0.218,0.327,0.462,0.613,1.083,1.545,2.467,3.705,5.247,7.399,10.18,14.19,24.676,46.263,77.1,123.363,308.4,462.605,740.159,925.196,3083.991,5551.195,9251.991,30839.981
159,0.218,0.328,0.463,0.614,1.085,1.548,2.471,3.712,5.256,7.412,10.198,14.215,24.719,46.344,77.236,123.58,308.942,463.418,741.46,926.823,3089.413,5560.954,9268.256,30894.198
160,0.218,0.329,0.464,0.615,1.087,1.551,2.475,3.718,5.265,7.425,10.216,14.24,24.762,46.425,77.371,123.796,309.481,464.226,742.753,928.44,3094.802,5570.655,9284.424,30948.09
161,0.218,0.33,0.465,0.616,1.089,1.554,2.479,3.724,5.274,7.438,10.234,14.265,24.805,46.505,77.505,124.01,310.017,465.03,744.039,930.047,3100.159,5580.298,9300.495,31001.661
162,0.218,0.331,0.466,0.617,1.091,1.557,2.483,3.73,5.283,7.451,10.252,14.289,24.848,46.585,77.638,124.223,310.55,465.829,745.317,931.645,3105.484,5589.884,9316.471,31054.915
163,0.218,0.332,0.467,0.618,1.093,1.56,2.487,3.736,5.292,7.464,10.269,14.313,24.89,46.664,77.77,124.435,311.079,466.623,746.588,933.233,3110.778,5599.413,9332.353,31107.856
164,0.218,0.333,0.468,0.619,1.095,1.563,2.491,3.742,5.301,7.477,10.286,14.337,24.932,46.743,77.902,124.646,311.605,467.412,747.851,934.812,3116.041,5608.887,9348.142,31160.488
165,0.218,0.334,0.469,0.62,1.097,1.566,2.495,3.748,5.31,7.49,10.303,14.361,24.974,46.821,78.033,124.855,312.128,468.197,749.107,936.382,3121.274,5618.306,9363.84,31212.814
166,0.218,0.335,0.47,0.621,1.099,1.569,2.499,3.754,5.319,7.502,10.32,14.385,25.016,46.899,78.163,125.063,312.648,468.977,750.356,937.943,3126.476,5627.67,9379.447,31264.837
167,0.218,0.336,0.471,0.622,1.101,1.572,2.503,3.76,5.328,7.514,10.337,14.409,25.057,46.977,78.292,125.27,313.165,469.753,751.597,939.495,3131.648,5636.98,9394.964,31316.561
168,0.218,0.337,0.472,0.623,1.103,1.575,2.507,3.766,5.337,7.526,10.354,14.433,25.098,47.054,78.421,125.476,313.679,470.524,752.831,941.038,3136.791,5646.237,9410.393,31367.99
169,0.218,0.338,0.473,0.624,1.105,1.578,2.511,3.772,5.346,7.538,10.371,14.457,25.139,47.131,78.549,125.681,314.19,471.291,754.058,942.572,3141.905,5655.442,9425.734,31419.126
170,0.218,0.339,0.474,0.625,1.107,1.581,2.515,3.778,5.355,7.55,10.388,14.48,25.18,47.207,78.676,125.884,314.698,472.054,755.278,944.097,3146.99,5664.595,9440.988,31469.973
171,0.218,0.34,0.475,0.626,1.109,1.584,2.519,3.784,5.364,7.562,10.405,14.503,25.22,47.283,78.802,126.086,315.204,472.812,756.491,945.614,3152.046,5673.696,9456.157,31520.535
172,0.218,0.341,0.476,0.627,1.111,1.587,2.523,3.79,5.373,7.574,10.422,14.526,25.26,47.358,78.928,126.287,315.707,473.566,757.698,947.122,3157.074,5682.746,9471.241,31570.814
173,0.218,0.342,0.477,0.628,1.113,1.59,2.527,3.796,5.382,7.586,10.439,14.549,25.3,47.433,79.053,126.487,316.207,474.316,758.898,948.622,3162.074,5691.746,9486.241,31620.814
174,0.218,0.342,0.478,0.629,1.115,1.592,2.531,3.802,5.39,7.598,10.455,14.572,25.34,47.508,79.177,126.686,316.704,475.062,760.091,950.114,3167.046,5700.696,9501.158,31670.538
175,0.218,0.342,0.479,0.63,1.117,1.594,2.535,3.808,5.398,7.61,10.471,14.595,25.38,47.582,79.301,126.884,317.199,475.804,761.278,951.598,3171.991,5709.597,9515.993,31719.989
176,0.218,0.342,0.48,0.631,1.119,1.596,2.539,3.814,5.406,7.622,10.487,14.618,25.419,47.656,79.424,127.081,317.691,476.542,762.458,953.073,3176.909,5718.449,9530.747,31769.169
177,0.218,0.342,0.481,0.632,1.121,1.598,2.543,3.82,5.414,7.634,10.503,14.641,25.458,47.729,79.546,127.277,318.18,477.276,763.632,954.54,3181.8,5727.253,9545.421,31818.082
178,0.218,0.342,0.482,0.633,1.123,1.6,2.547,3.826,5.422,7.646,10.519,14.663,25.497,47.802,79.668,127.472,318.666,478.006,764.8,955.999,3186.665,5736.01,9560.016,31866.731
179,0.218,0.342,0.483,0.634,1.125,1.602,2.551,3.832,5.43,7.658,10.535,14.685,25.536,47.875,79.789,127.666,319.15,478.732,765.961,957.451,3191.504,5744.72,9574.532,31915.118
180,0.218,0.342,0.484,0.635,1.127,1.604,2.555,3.838,5.438,7.67,10.551,14.707,25.575,47.947,79.909,127.859,319.631,479.454,767.116,958.895,3196.317,5753.383,9588.971,31963.246
181,0.218,0.342,0.485,0.636,1.129,1.606,2.559,3.844,5.446,7.681,10.567,14.729,25.613,48.019,80.029,128.05,320.11,480.172,768.265,960.331,3201.104,5762,9603.333,32011.118
182,0.218,0.342,0.486,0.637,1.131,1.608,2.563,3.85,5.454,7.692,10.583,14.751,25.651,48.09,80.148,128.24,320.586,480.886,769.408,961.76,3205.866,5770.571,9617.619,32058.737
183,0.218,0.342,0.487,0.638,1.133,1.61,2.567,3.856,5.462,7.703,10.599,14.773,25.689,48.161,80.266,128.429,321.06,481.597,770.545,963.181,3210.603,5779.097,9631.83,32106.105
184,0.218,0.342,0.488,0.639,1.135,1.612,2.571,3.862,5.47,7.714,10.615,14.795,25.727,48.232,80.384,128.617,321.531,482.304,771.676,964.595,3215.315,5787.579,9645.966,32153.225
185,0.218,0.342,0.489,0.64,1.137,1.614,2.575,3.868,5.478,7.725,10.63,14.817,25.765,48.302,80.501,128.805,322,483.007,772.801,966.001,3220.003,5796.017,9660.029,32200.1
186,0.218,0.342,0.49,0.641,1.139,1.616,2.579,3.874,5.486,7.736,10.645,14.838,25.802,48.372,80.618,128.992,322.466,483.706,773.92,967.4,3224.666,5804.411,9674.019,32246.732
187,0.218,0.342,0.491,0.642,1.141,1.618,2.583,3.88,5.494,7.747,10.66,14.859,25.839,48.442,80.734,129.178,322.93,484.402,775.033,968.792,3229.305,5812.762,9687.937,32293.124
188,0.218,0.342,0.492,0.643,1.143,1.62,2.587,3.886,5.502,7.758,10.675,14.88,25.876,48.511,80.849,129.363,323.392,485.094,776.141,970.177,3233.92,5821.07,9701.783,32339.278
189,0.218,0.342,0.493,0.644,1.145,1.622,2.591,3.892,5.51,7.769,10.69,14.901,25.913,48.58,80.964,129.547,323.851,485.783,777.243,971.555,3238.512,5829.335,9715.559,32385.196
190,0.218,0.342,0.494,0.645,1.147,1.624,2.595,3.897,5.518,7.78,10.705,14.922,25.95,48.649,81.078,129.73,324.308,486.468,778.339,972.926,3243.081,5837.558,9729.265,32430.881
191,0.218,0.342,0.495,0.646,1.149,1.626,2.599,3.902,5.526,7.791,10.72,14.943,25.986,48.717,81.192,129.912,324.763,487.15,779.43,974.29,3247.626,5845.74,9742.901,32476.336
192,0.218,0.342,0.496,0.647,1.151,1.628,2.603,3.907,5.534,7.802,10.735,14.964,26.022,48.785,81.305,130.093,325.215,487.828,780.515,975.647,3252.149,5853.881,9756.469,32521.562
193,0.218,0.342,0.497,0.648,1.153,1.63,2.607,3.912,5.542,7.813,10.75,14.985,26.058,48.853,81.418,130.273,325.665,488.503,781.595,976.997,3256.649,5861.981,9769.969,32566.562
194,0.218,0.342,0.498,0.649,1.155,1.632,2.611,3.917,5.55,7.824,10.765,15.006,26.094,48.92,81.53,130.452,326.113,489.175,782.67,978.34,3261.127,5870.041,9783.402,32611.338
195,0.218,0.342,0.499,0.65,1.157,1.634,2.615,3.922,5.558,7.835,10.78,15.026,26.13,48.987,81.641,130.63,326.559,489.843,783.739,979.677,3265.582,5878.061,9796.768,32655.892
196,0.218,0.342,0.5,0.651,1.159,1.636,2.619,3.927,5.566,7.846,10.795,15.046,26.165,49.054,81.752,130.807,327.002,490.508,784.803,981.007,3270.015,5886.041,9810.068,32700.227
197,0.218,0.342,0.501,0.652,1.161,1.638,2.623,3.932,5.574,7.857,10.81,15.066,26.2,49.12,81.862,130.983,327.443,491.17,785.862,982.331,3274.427,5893.982,9823.303,32744.345
198,0.218,0.342,0.502,0.653,1.163,1.64,2.627,3.937,5.581,7.868,10.824,15.086,26.235,49.186,81.972,131.159,327.882,491.829,786.916,983.648,3278.817,5901.884,9836.474,32788.247
199,0.218,0.342,0.503,0.654,1.165,1.642,2.63,3.942,5.588,7.878,10.838,15.106,26.27,49.252,82.081,131.334,328.319,492.484,787.965,984.959,3283.186,5909.748,9849.581,32831.936
200,0.218,0.342,0.504,0.655,1.167,1.644,2.633,3.947,5.595,7.888,10.852,15.126,26.305,49.317,82.19,131.508,328.754,493.136,789.008,986.263,3287.534,5917.574,9862.624,32875.414
201,0.218,0.342,0.505,0.656,1.169,1.646,2.636,3.952,5.602,7.898,10.866,15.146,26.34,49.382,82.298,131.681,329.187,493.785,790.046,987.561,3291.861,5925.362,9875.605,32918.683
202,0.218,0.342,0.506,0.657,1.171,1.648,2.639,3.957,5.609,7.908,10.88,15.166,26.374,49.447,82.406,131.853,329.618,494.431,791.079,988.853,3296.167,5933.113,9888.524,32961.745
203,0.218,0.342,0.507,0.658,1.173,1.65,2.642,3.962,5.616,7.918,10.894,15.186,26.408,49.511,82.513,132.024,330.047,495.074,792.108,990.139,3300.453,5940.827,9901.381,33004.602
204,0.218,0.342,0.508,0.659,1.174,1.652,2.645,3.967,5.623,7.928,10.908,15.206,26.442,49.575,82.62,132.195,330.474,495.714,793.132,991.419,3304.718,5948.505,9914.177,33047.256
205,0.218,0.342,0.509,0.66,1.175,1.654,2.648,3.972,5.63,7.938,10.922,15.226,26.476,49.639,82.726,132.365,330.899,496.351,794.151,992.693,3308.963,5956.147,9926.913,33089.709
206,0.218,0.342,0.51,0.661,1.176,1.656,2.651,3.977,5.637,7.948,10.936,15.245,26.51,49.702,82.832,132.534,331.322,496.985,795.165,993.961,3313.188,5963.753,9939.589,33131.963
207,0.218,0.342,0.511,0.662,1.177,1.658,2.654,3.982,5.644,7.958,10.95,15.264,26.544,49.765,82.937,132.702,331.743,497.616,796.174,995.223,3317.394,5971.323,9952.206,33174.019
208,0.218,0.342,0.512,0.663,1.178,1.66,2.657,3.987,5.651,7.968,10.964,15.283,26.577,49.828,83.042,132.869,332.162,498.244,797.179,996.479,3321.58,5978.858,9964.764,33215.879
209,0.218,0.342,0.513,0.664,1.179,1.662,2.66,3.992,5.658,7.978,10.978,15.302,26.61,49.891,83.146,133.036,332.579,498.869,798.179,997.729,3325.747,5986.358,9977.264,33257.546
210,0.218,0.342,0.514,0.665,1.18,1.664,2.663,3.997,5.665,7.988,10.992,15.321,26.643,49.953,83.25,133.202,332.994,499.491,799.174,998.973,3329.894,5993.823,9989.706,33299.021
211,0.218,0.342,0.515,0.666,1.181,1.666,2.666,4.002,5.672,7.998,11.006,15.34,26.676,50.015,83.353,133.367,333.407,500.11,800.165,1000.212,3334.022,6001.254,10002.091,33340.305
212,0.218,0.342,0.516,0.667,1.182,1.668,2.669,4.007,5.679,8.008,11.02,15.359,26.709,50.077,83.456,133.531,333.818,500.726,801.151,1001.445,3338.132,6008.651,10014.42,33381.401
213,0.218,0.342,0.517,0.668,1.183,1.67,2.672,4.012,5.686,8.018,11.034,15.378,26.742,50.138,83.558,133.695,334.227,501.34,802.133,1002.672,3342.223,6016.015,10026.693,33422.31
214,0.218,0.342,0.518,0.669,1.184,1.672,2.675,4.017,5.693,8.028,11.047,15.397,26.775,50.199,83.66,133.858,334.634,501.951,803.11,1003.894,3346.295,6023.345,10038.91,33463.034
215,0.218,0.342,0.519,0.67,1.185,1.674,2.678,4.022,5.7,8.038,11.06,15.416,26.807,50.26,83.761,134.02,335.039,502.559,804.083,1005.11,3350.349,6030.642,10051.072,33503.575
216,0.218,0.342,0.52,0.671,1.186,1.676,2.681,4.027,5.707,8.048,11.073,15.435,26.839,50.321,83.862,134.181,335.443,503.164,805.052,1006.321,3354.385,6037.907,10063.18,33543.934
217,0.218,0.342,0.521,0.672,1.187,1.678,2.684,4.032,5.714,8.058,11.086,15.453,26.871,50.381,83.962,134.342,335.845,503.767,806.016,1007.526,3358.403,6045.139,10075.234,33584.113
218,0.218,0.342,0.522,0.673,1.188,1.68,2.687,4.037,5.721,8.068,11.099,15.471,26.903,50.441,84.062,134.502,336.245,504.367,806.976,1008.726,3362.403,6052.339,10087.234,33624.113
219,0.218,0.342,0.523,0.674,1.189,1.682,2.69,4.042,5.728,8.078,11.112,15.489,26.935,50.501,84.162,134.661,336.643,504.964,807.932,1009.921,3366.385,6059.507,10099.181,33663.936
220,0.218,0.342,0.524,0.675,1.19,1.684,2.693,4.047,5.735,8.088,11.125,15.507,26.967,50.56,84.261,134.82,337.039,505.559,808.884,1011.11,3370.35,6066.644,10111.075,33703.584
221,0.218,0.342,0.525,0.676,1.191,1.686,2.696,4.052,5.742,8.097,11.138,15.525,26.999,50.619,84.36,134.978,337.434,506.151,809.831,1012.294,3374.297,6073.749,10122.917,33743.058
222,0.218,0.342,0.526,0.677,1.192,1.688,2.699,4.057,5.749,8.106,11.151,15.543,27.03,50.678,84.458,135.135,337.827,506.741,810.774,1013.473,3378.227,6080.823,10134.707,33782.359
223,0.218,0.342,0.527,0.678,1.193,1.69,2.702,4.062,5.756,8.115,11.164,15.561,27.061,50.737,84.556,135.292,338.218,507.328,811.713,1014.647,3382.14,6087.866,10146.446,33821.489
224,0.218,0.342,0.528,0.679,1.194,1.692,2.705,4.067,5.763,8.124,11.177,15.579,27.092,50.795,84.653,135.448,338.608,507.912,812.648,1015.816,3386.036,6094.879,10158.134,33860.45
225,0.218,0.342,0.529,0.68,1.195,1.694,2.708,4.072,5.77,8.133,11.19,15.597,27.123,50.853,84.75,135.603,338.996,508.494,813.579,1016.98,3389.915,6101.862,10169.772,33899.243
226,0.218,0.342,0.53,0.681,1.196,1.696,2.711,4.077,5.777,8.142,11.203,15.615,27.154,50.911,84.847,135.758,339.382,509.073,814.506,1018.139,3393.778,6108.815,10181.36,33937.87
227,0.218,0.342,0.531,0.682,1.197,1.698,2.714,4.082,5.784,8.151,11.216,15.633,27.185,50.969,84.943,135.912,339.767,509.65,815.429,1019.293,3397.624,6115.738,10192.898,33976.332
228,0.218,0.342,0.532,0.683,1.198,1.7,2.717,4.087,5.791,8.16,11.229,15.651,27.216,51.026,85.039,136.065,340.15,510.224,816.348,1020.442,3401.454,6122.632,10204.387,34014.63
229,0.218,0.342,0.533,0.684,1.199,1.702,2.72,4.092,5.797,8.169,11.242,15.669,27.247,51.083,85.134,136.218,340.531,510.796,817.263,1021.586,3405.268,6129.496,10215.828,34052.766
230,0.218,0.342,0.534,0.685,1.2,1.704,2.723,4.097,5.803,8.178,11.255,15.686,27.277,51.14,85.229,136.37,340.911,511.366,818.174,1022.725,3409.065,6136.331,10227.22,34090.741
231,0.218,0.342,0.535,0.686,1.201,1.706,2.726,4.102,5.809,8.187,11.267,15.703,27.307,51.197,85.324,136.521,341.289,511.933,819.082,1023.859,3412.847,6143.138,10238.565,34128.556
232,0.218,0.342,0.536,0.687,1.202,1.708,2.729,4.107,5.815,8.196,11.279,15.72,27.337,51.253,85.418,136.672,341.666,512.498,819.986,1024.989,3416.613,6149.916,10249.862,34166.213
233,0.218,0.342,0.537,0.688,1.203,1.71,2.732,4.112,5.821,8.205,11.291,15.737,27.367,51.309,85.512,136.822,342.041,513.061,820.886,1026.114,3420.363,6156.666,10261.112,34203.713
234,0.218,0.342,0.538,0.689,1.204,1.712,2.735,4.116,5.827,8.214,11.303,15.754,27.397,51.365,85.605,136.971,342.414,513.621,821.782,1027.234,3424.097,6163.388,10272.315,34241.057
235,0.218,0.342,0.539,0.69,1.205,1.714,2.738,4.12,5.833,8.223,11.315,15.771,27.427,51.421,85.698,137.12,342.786,514.179,822.675,1028.35,3427.816,6170.082,10283.472,34278.247
236,0.218,0.342,0.54,0.691,1.206,1.716,2.741,4.124,5.839,8.232,11.327,15.788,27.457,51.477,85.791,137.268,343.156,514.735,823.564,1029.461,3431.52,6176.749,10294.583,34315.284
237,0.218,0.342,0.541,0.692,1.207,1.718,2.744,4.128,5.845,8.241,11.339,15.805,27.487,51.532,85.883,137.416,343.525,515.288,824.449,1030.568,3435.209,6183.388,10305.649,34352.169
238,0.218,0.342,0.542,0.693,1.208,1.72,2.747,4.132,5.851,8.25,11.351,15.822,27.516,51.587,85.975,137.563,343.892,515.839,825.331,1031.67,3438.882,6190,10316.669,34388.904
239,0.218,0.342,0.543,0.694,1.209,1.722,2.75,4.136,5.857,8.259,11.363,15.839,27.545,51.642,86.066,137.709,344.258,516.388,826.209,1032.768,3442.541,6196.585,10327.645,34425.489
240,0.218,0.342,0.544,0.695,1.21,1.724,2.753,4.14,5.863,8.268,11.375,15.856,27.574,51.697,86.157,137.855,344.622,516.935,827.083,1033.861,3446.185,6203.144,10338.576,34461.926
241,0.218,0.342,0.545,0.696,1.211,1.726,2.756,4.144,5.869,8.277,11.387,15.873,27.603,51.751,86.248,138,344.985,517.479,827.954,1034.95,3449.814,6209.676,10349.463,34498.216
242,0.218,0.342,0.546,0.697,1.212,1.728,2.759,4.148,5.875,8.286,11.399,15.89,27.632,51.805,86.338,138.145,345.346,518.021,828.821,1036.034,3453.428,6216.182,10360.306,34534.361
243,0.218,0.342,0.547,0.698,1.213,1.73,2.762,4.152,5.881,8.295,11.411,15.907,27.661,51.859,86.428,138.289,345.706,518.561,829.685,1037.114,3457.028,6222.662,10371.106,34570.361
244,0.218,0.342,0.548,0.699,1.214,1.732,2.765,4.156,5.887,8.304,11.423,15.923,27.69,51.913,86.518,138.432,346.065,519.099,830.546,1038.19,3460.614,6229.116,10381.863,34606.218
245,0.218,0.342,0.549,0.7,1.215,1.734,2.768,4.16,5.893,8.313,11.435,15.939,27.719,51.967,86.607,138.575,346.422,519.635,831.403,1039.261,3464.185,6235.545,10392.577,34641.932
246,0.218,0.342,0.55,0.701,1.216,1.736,2.771,4.164,5.899,8.322,11.447,15.955,27.747,52.02,86.696,138.717,346.778,520.169,832.257,1040.328,3467.742,6241.948,10403.249,34677.505
247,0.218,0.342,0.551,0.702,1.217,1.738,2.774,4.168,5.905,8.331,11.459,15.971,27.775,52.073,86.785,138.859,347.132,520.7,833.107,1041.391,3471.285,6248.326,10413.879,34712.938
248,0.218,0.342,0.552,0.703,1.218,1.74,2.777,4.172,5.911,8.339,11.471,15.987,27.803,52.126,86.873,139,347.485,521.229,833.954,1042.45,3474.814,6254.679,10424.467,34748.232
249,0.218,0.342,0.553,0.704,1.219,1.742,2.78,4.176,5.917,8.347,11.483,16.003,27.831,52.179,86.961,139.141,347.837,521.756,834.798,1043.505,3478.33,6261.007,10435.014,34783.388
250,0.218,0.342,0.554,0.705,1.22,1.744,2.783,4.18,5.923,8.355,11.495,16.019,27.859,52.232,87.049,139.281,348.187,522.281,835.638,1044.556,3481.832,6267.311,10445.52,34818.407
