enhanceCount,0,1,2,3,4,5,6,7,8,9,10,11,12,13,14,15,16,17,18,19,20,21,22,23
0,1,2,3,4,6,7,8,9,28,30,32,34,97,102,106,110,367,377,388,398,1021,1022,1023,1024
1,3,6,8,11,17,20,22,25,79,84,90,95,270,282,293,304,1016,1044,1073,1101,2827,2829,2832,2834
2,5,10,15,20,30,35,40,45,141,150,161,170,482,503,522,542,1811,1861,1912,1962,5039,5043,5047,5051
3,8,15,23,30,45,53,60,68,213,226,243,257,727,758,787,817,2729,2804,2881,2956,7593,7599,7605,7611
4,11,21,31,41,62,73,83,93,293,311,334,354,1001,1043,1083,1124,3755,3859,3964,4067,10448,10457,10465,10473
5,14,27,40,53,81,95,108,121,381,405,434,460,1301,1355,1408,1461,4879,5014,5151,5284,13576,13587,13598,13608
6,17,34,50,66,101,118,135,151,476,506,542,575,1625,1692,1759,1825,6093,6262,6433,6599,16955,16968,16982,16995
7,21,41,61,80,123,143,164,183,577,614,657,698,1971,2053,2134,2214,7391,7596,7803,8005,20567,20583,20600,20615
8,25,49,72,95,146,170,195,217,684,729,779,828,2339,2436,2532,2627,8768,9011,9257,9496,24398,24417,24437,24455
9,29,57,84,111,170,198,227,253,797,850,908,965,2726,2839,2951,3062,10219,10502,10789,11068,28436,28458,28482,28503
10,33,65,97,128,196,227,261,291,916,977,1043,1109,3132,3262,3390,3518,11741,12066,12396,12716,32671,32697,32724,32748
11,37,74,110,146,223,258,296,330,1040,1109,1184,1259,3556,3704,3849,3994,13331,13700,14074,14438,37095,37124,37155,37182
12,42,83,124,164,251,290,333,371,1169,1247,1331,1415,3998,4164,4327,4490,14986,15400,15821,16230,41699,41732,41767,41797
13,47,93,138,183,280,323,371,414,1303,1390,1484,1577,4456,4641,4823,5004,16703,17165,17634,18090,46477,46514,46553,46586
14,52,103,153,203,310,357,411,458,1442,1538,1642,1745,4930,5135,5336,5537,18481,18991,19510,20015,51423,51464,51507,51543
15,57,113,168,223,341,392,452,504,1585,1691,1805,1919,5420,5645,5866,6087,20317,20877,21448,22003,56531,56576,56623,56663
16,62,124,184,244,373,428,494,551,1733,1849,1973,2098,5925,6171,6412,6654,22210,22821,23446,24052,61796,61845,61896,61941
17,67,135,200,266,406,466,537,599,1885,2011,2146,2282,6445,6712,6974,7237,24157,24822,25502,26161,67214,67267,67322,67372
18,73,146,217,288,440,505,581,649,2041,2178,2324,2471,6979,7268,7552,7836,26158,26878,27614,28327,72780,72838,72897,72951
19,79,157,234,311,474,545,627,700,2201,2349,2506,2665,7527,7838,8145,8451,28211,28987,29781,30550,78491,78553,78617,78675
20,85,169,251,334,509,586,674,752,2365,2524,2693,2864,8088,8422,8752,9081,30314,31148,32001,32828,84343,84410,84478,84541
21,91,181,269,358,545,628,722,805,2533,2703,2884,3068,8663,9020,9373,9726,32467,33360,34274,35159,90333,90404,90477,90545
22,97,193,287,382,582,670,771,860,2705,2886,3080,3276,9250,9631,10008,10385,34668,35622,36598,37543,96457,96533,96611,96684
23,103,205,306,407,620,713,821,916,2880,3073,3280,3489,9850,10256,10657,11059,36917,37932,38972,39978,102713,102794,102877,102955
24,109,218,325,433,659,757,872,973,3059,3264,3484,3706,10463,10894,11320,11747,39212,40290,41395,42463,109098,109184,109272,109355
25,116,231,344,459,698,802,924,1031,3242,3459,3692,3927,11088,11544,11996,12448,41552,42695,43865,44997,115609,115701,115794,115882
26,123,244,364,486,738,848,977,1090,3428,3657,3904,4153,11725,12207,12684,13162,43937,45146,46383,47579,122244,122342,122440,122533
27,130,257,384,513,779,895,1031,1150,3617,3859,4120,4383,12373,12882,13385,13890,46366,47641,48947,50209,129001,129105,129208,129306
28,137,271,404,540,820,943,1086,1211,3810,4065,4340,4617,13033,13569,14099,14630,48838,50181,51556,52885,135878,135987,136096,136199
29,144,285,425,568,862,991,1142,1273,4006,4274,4563,4855,13704,14267,14825,15383,51352,52764,54210,55607,142872,142987,143101,143210
30,151,299,446,596,905,1040,1199,1336,4205,4487,4790,5097,14386,14977,15563,16149,53908,55390,56908,58374,149982,150103,150222,150337
31,158,313,467,625,949,1090,1257,1400,4408,4703,5021,5343,15079,15698,16313,16927,56504,58058,59649,61185,157206,157332,157457,157578
32,165,328,489,654,993,1141,1316,1465,4614,4922,5255,5592,15783,16430,17074,17717,59141,60767,62432,64040,164542,164674,164804,164931
33,172,343,511,684,1038,1193,1375,1531,4823,5145,5493,5845,16497,17173,17847,18519,61817,63517,65257,66938,171988,172126,172262,172395
34,180,358,533,714,1084,1245,1435,1598,5035,5371,5734,6102,17222,17927,18631,19332,64532,66307,68123,69878,179543,179687,179829,179968
35,188,373,556,745,1130,1298,1496,1666,5250,5600,5979,6362,17957,18692,19426,20157,67286,69137,71030,72860,187205,187355,187503,187648
36,196,389,579,776,1177,1352,1558,1735,5468,5832,6227,6626,18702,19468,20232,20993,70078,72006,73977,75883,194973,195129,195283,195434
37,204,405,602,807,1224,1407,1621,1805,5689,6067,6479,6894,19457,20254,21049,21841,72907,74913,76964,78947,202845,203007,203167,203324
38,212,421,626,839,1272,1462,1685,1876,5913,6306,6734,7165,20222,21050,21876,22700,75773,77858,79990,82051,210820,210988,211154,211318
39,220,437,650,871,1321,1518,1750,1948,6139,6548,6992,7439,20997,21856,22714,23570,78676,80841,83054,85194,218896,219071,219243,219413
40,228,453,674,904,1370,1575,1815,2021,6368,6793,7253,7717,21781,22672,23562,24450,81615,83861,86156,88376,227073,227254,227433,227609
41,236,470,699,937,1420,1632,1881,2095,6600,7041,7517,7998,22575,23498,24421,25341,84590,86917,89296,91597,235349,235536,235722,235904
42,244,487,724,970,1470,1690,1948,2170,6835,7291,7785,8283,23378,24334,25290,26243,87600,90009,92473,94856,243723,243916,244109,244298
43,252,504,749,1004,1521,1749,2016,2246,7072,7544,8056,8571,24191,25180,26169,27155,90645,93137,95687,98153,252194,252393,252593,252789
44,261,521,774,1038,1573,1808,2084,2322,7312,7800,8330,8862,25013,26035,27058,28077,93724,96301,98937,101487,260760,260966,261173,261376
45,270,538,800,1073,1625,1868,2153,2399,7555,8059,8607,9156,25844,26900,27957,29010,96837,99500,102223,104858,269421,269634,269848,270057
46,279,555,826,1108,1678,1929,2223,2477,7800,8321,8887,9454,26684,27774,28865,29953,99984,102733,105545,108265,278176,278396,278616,278832
47,288,573,852,1143,1731,1990,2294,2556,8048,8586,9170,9755,27533,28657,29783,30906,103164,106000,108902,111708,287023,287250,287477,287700
48,297,591,879,1179,1785,2052,2365,2636,8299,8853,9456,10059,28391,29550,30711,31869,106377,109301,112294,115187,295962,296196,296430,296660
49,306,609,906,1215,1839,2115,2437,2717,8552,9123,9744,10366,29257,30452,31648,32841,109623,112636,115720,118701,304992,305233,305474,305711
50,315,627,933,1251,1894,2178,2510,2798,8808,9396,10035,10676,30132,31363,32594,33823,112901,116004,119180,122250,314112,314360,314608,314852
51,324,645,960,1288,1950,2242,2584,2880,9066,9671,10329,10989,31015,32282,33549,34815,116211,119405,122674,125834,323321,323576,323831,324082
52,333,664,988,1325,2006,2306,2658,2963,9327,9949,10626,11305,31907,33210,34514,35816,119553,122838,126201,129452,332618,332880,333142,333401
53,342,683,1016,1362,2063,2371,2733,3047,9590,10230,10926,11624,32807,34147,35488,36826,122926,126304,129761,133104,342002,342271,342541,342807
54,351,702,1044,1400,2120,2437,2809,3132,9855,10513,11229,11946,33715,35093,36471,37846,126330,129801,133354,136790,351472,351749,352026,352300
55,361,721,1072,1438,2178,2503,2885,3217,10123,10799,11534,12271,34632,36047,37463,38875,129765,133330,136980,140509,361028,361313,361597,361879
56,371,740,1101,1477,2236,2570,2962,3303,10393,11087,11842,12599,35557,37010,38463,39913,133230,136891,140638,144261,370669,370962,371253,371543
57,381,759,1130,1516,2295,2637,3040,3390,10666,11378,12153,12930,36490,37981,39472,40960,136726,140483,144328,148046,380394,380695,380994,381291
58,391,779,1159,1555,2354,2705,3118,3478,10941,11671,12466,13263,37431,38960,40490,42016,140252,144105,148050,151864,390203,390512,390818,391123
59,401,799,1188,1595,2414,2774,3197,3566,11218,11967,12782,13599,38380,39948,41516,43081,143807,147758,151803,155714,400095,400411,400725,401038
60,411,819,1218,1635,2474,2843,3277,3655,11498,12265,13101,13938,39337,40944,42551,44155,147392,151441,155587,159596,410069,410392,410714,411035
61,421,839,1248,1675,2535,2913,3357,3745,11780,12566,13422,14280,40302,41948,43594,45238,151006,155154,159402,163509,420124,420455,420785,421114
62,431,859,1278,1715,2596,2983,3438,3835,12064,12869,13746,14624,41274,42960,44646,46329,154649,158897,163248,167454,430260,430599,430937,431274
63,441,879,1308,1756,2658,3054,3520,3926,12350,13175,14072,14971,42254,43980,45706,47429,158321,162670,167124,171430,440476,440823,441169,441514
64,451,900,1339,1797,2720,3125,3602,4018,12639,13483,14401,15321,43242,45008,46774,48538,162022,166472,171030,175437,450772,451127,451481,451834
65,461,921,1370,1838,2783,3197,3685,4111,12930,13793,14732,15674,44237,46044,47850,49655,165751,170303,174966,179475,461146,461510,461872,462233
66,471,942,1401,1880,2846,3269,3768,4204,13223,14106,15066,16029,45240,47088,48935,50780,169508,174163,178932,183543,471599,471971,472341,472710
67,482,963,1432,1922,2909,3342,3852,4298,13518,14421,15402,16387,46250,48139,50028,51914,173293,178052,182927,187641,482129,482510,482888,483265
68,493,984,1464,1964,2973,3416,3937,4393,13815,14738,15741,16748,47268,49198,51129,53056,177106,181969,186952,191769,492737,493126,493512,493897
69,504,1005,1496,2007,3037,3490,4022,4488,14115,15058,16082,17111,48293,50265,52238,54206,180946,185915,191006,195927,503421,503819,504213,504606
70,515,1026,1528,2050,3102,3565,4108,4584,14417,15380,16426,17477,49325,51339,53354,55365,184814,189889,195088,200115,514181,514588,514990,515391
71,526,1048,1560,2093,3167,3640,4195,4681,14721,15704,16772,17845,50364,52421,54478,56532,188709,193891,199199,204332,525017,525432,525843,526252
72,537,1070,1592,2137,3233,3716,4282,4778,15027,16030,17121,18216,51411,53510,55610,57707,192631,197920,203339,208578,535928,536351,536771,537188
73,548,1092,1625,2181,3299,3792,4370,4876,15335,16359,17472,18589,52465,54607,56750,58890,196579,201977,207507,212853,546913,547345,547773,548199
74,559,1114,1658,2225,3366,3869,4458,4975,15645,16690,17825,18965,53526,55711,57897,60081,200554,206061,211703,217157,557972,558413,558849,559284
75,570,1136,1691,2269,3433,3946,4547,5074,15957,17023,18181,19343,54594,56823,59052,61280,204555,210172,215927,221490,569105,569554,569999,570443
76,581,1158,1724,2314,3501,4024,4637,5174,16271,17358,18539,19724,55669,57942,60215,62487,208583,214310,220178,225851,580311,580768,581222,581675
77,592,1181,1758,2359,3569,4102,4727,5275,16587,17695,18899,20107,56751,59068,61385,63701,212637,218475,224457,230240,591589,592055,592518,592980
78,603,1204,1792,2404,3637,4181,4818,5376,16905,18035,19262,20493,57840,60201,62563,64923,216717,222667,228763,234657,602939,603414,603886,604357
79,614,1227,1826,2450,3706,4260,4909,5478,17225,18377,19627,20881,58936,61341,63748,66153,220822,226885,233096,239102,614361,614845,615326,615806
80,625,1250,1860,2496,3775,4340,5001,5581,17547,18721,19994,21272,60039,62489,64941,67391,224953,231129,237457,243575,625854,626347,626837,627326
81,637,1273,1894,2542,3845,4420,5093,5684,17871,19067,20363,21665,61148,63644,66141,68636,229109,235400,241844,248076,637418,637920,638419,638917
82,649,1296,1929,2588,3915,4501,5186,5788,18197,19415,20735,22060,62264,64806,67348,69889,233291,239696,246258,252604,649052,649563,650071,650578
83,661,1319,1964,2635,3986,4582,5279,5892,18525,19765,21109,22458,63387,65975,68562,71149,237498,244018,250699,257159,660756,661276,661793,662309
84,673,1343,1999,2682,4057,4664,5373,5997,18855,20117,21485,22858,64516,67150,69784,72417,241730,248366,255166,261741,672529,673059,673585,674110
85,685,1367,2034,2729,4128,4746,5468,6103,19187,20471,21863,23260,65652,68332,71013,73692,245987,252739,259659,266350,684371,684911,685446,685980
86,697,1391,2069,2777,4200,4829,5563,6209,19521,20827,22244,23665,66795,69521,72249,74975,250268,257138,264178,270986,696282,696831,697376,697919
87,709,1415,2105,2825,4272,4912,5659,6316,19857,21185,22627,24072,67944,70717,73492,76265,254574,261562,268723,275648,708261,708820,709374,709926
88,721,1439,2141,2873,4345,4995,5755,6424,20195,21545,23012,24481,69100,71920,74742,77562,258904,266011,273294,280337,720308,720877,721440,722001
89,733,1463,2177,2921,4418,5079,5852,6532,20535,21907,23399,24893,70262,73130,75999,78866,263258,270485,277890,285052,732423,733001,733574,734144
90,745,1487,2213,2970,4491,5163,5949,6641,20877,22271,23788,25307,71431,74346,77263,80178,267637,274984,282512,289793,744605,745192,745775,746354
91,757,1511,2249,3019,4565,5248,6047,6750,21220,22637,24179,25723,72606,75569,78534,81497,272040,279507,287159,294560,756854,757450,758043,758631
92,769,1536,2286,3068,4639,5333,6145,6860,21565,23005,24572,26142,73787,76799,79812,82823,276466,284055,291831,299353,769169,769775,770377,770975
93,781,1561,2323,3117,4714,5419,6244,6971,21912,23375,24968,26563,74975,78035,81097,84156,280916,288627,296528,304172,781550,782166,782777,783385
94,793,1586,2360,3167,4789,5505,6343,7082,22261,23747,25366,26986,76169,79278,82388,85496,285390,293224,301250,309016,793997,794622,795243,795861
95,805,1611,2397,3217,4864,5592,6443,7194,22612,24121,25766,27411,77369,80527,83686,86843,289887,297845,305997,313886,806509,807144,807775,808402
96,818,1636,2434,3267,4940,5679,6543,7306,22965,24497,26168,27838,78575,81783,84991,88197,294408,302490,310769,318781,819086,819731,820372,821009
97,831,1661,2472,3317,5016,5767,6644,7419,23319,24875,26572,28268,79788,83045,86303,89558,298952,307159,315565,323701,831728,832383,833033,833680
98,844,1686,2510,3368,5093,5855,6745,7532,23675,25255,26978,28700,81007,84314,87621,90926,303519,311851,320386,328646,844434,845099,845759,846416
99,857,1712,2548,3419,5170,5944,6847,7646,24033,25637,27386,29134,82232,85589,88946,92301,308109,316567,325231,333616,857204,857879,858549,859216
100,870,1738,2586,3470,5247,6033,6950,7761,24393,26021,27796,29570,83463,86870,90278,93683,312722,321307,330100,338611,870038,870723,871403,872080
101,883,1764,2624,3522,5325,6122,7053,7876,24755,26407,28208,30008,84700,88158,91616,95072,317358,326070,334993,343630,882935,883630,884320,885007
102,896,1790,2663,3574,5403,6212,7157,7992,25118,26795,28622,30448,85943,89452,92961,96467,322016,330856,339910,348674,895895,896600,897300,897998
103,909,1816,2702,3626,5482,6302,7261,8108,25483,27185,29038,30891,87192,90752,94312,97869,326697,335665,344851,353742,908918,909633,910343,911051
104,922,1842,2741,3678,5561,6393,7366,8225,25850,27576,29456,31336,88447,92058,95670,99278,331400,340497,349816,358835,922003,922729,923449,924167
105,935,1868,2780,3731,5640,6484,7471,8342,26219,27969,29876,31783,89708,93371,97034,100694,336126,345352,354804,363952,935151,935887,936617,937345
106,948,1894,2819,3784,5720,6576,7577,8460,26589,28364,30298,32232,90975,94690,98405,102116,340874,350230,359816,369093,948360,949107,949847,950585
107,961,1921,2858,3837,5800,6668,7683,8578,26961,28761,30722,32683,92248,96015,99782,103545,345644,355131,364851,374258,961631,962388,963139,963887
108,974,1948,2898,3890,5880,6760,7789,8697,27335,29160,31148,33136,93527,97346,101165,104981,350436,360055,369909,379447,974963,975731,976492,977251
109,987,1975,2938,3943,5961,6853,7896,8817,27710,29561,31576,33591,94812,98683,102555,106423,355250,365001,374990,384660,988356,989135,989906,990676
110,1000,2002,2978,3997,6042,6946,8003,8937,28087,29963,32006,34048,96103,100026,103951,107872,360086,369970,380095,389896,1001810,1002600,1003381,1004162
111,1013,2029,3018,4051,6123,7040,8111,9058,28466,30367,32438,34507,97399,101375,105353,109327,364944,374961,385222,395156,1015324,1016125,1016917,1017708
112,1027,2056,3058,4105,6205,7134,8219,9179,28847,30773,32872,34968,98701,102730,106761,110789,369823,379974,390372,400439,1028899,1029710,1030513,1031315
113,1041,2083,3099,4159,6287,7228,8328,9301,29229,31181,33308,35431,100009,104091,108176,112257,374724,385009,395545,405746,1042534,1043355,1044169,1044982
114,1055,2110,3140,4214,6370,7323,8437,9423,29613,31591,33746,35896,101323,105458,109597,113732,379646,390066,400741,411076,1056228,1057060,1057885,1058708
115,1069,2137,3181,4269,6453,7418,8547,9546,29999,32002,34185,36363,102642,106831,111024,115213,384590,395145,405959,416429,1069982,1070824,1071660,1072494
116,1083,2165,3222,4324,6536,7514,8657,9669,30386,32415,34626,36832,103967,108210,112457,116700,389555,400246,411200,421805,1083795,1084648,1085495,1086339
117,1097,2193,3263,4379,6620,7610,8768,9793,30775,32830,35069,37303,105298,109595,113896,118194,394541,405369,416463,427204,1097667,1098531,1099388,1100243
118,1111,2221,3304,4435,6704,7707,8879,9917,31166,33247,35514,37776,106634,110986,115341,119694,399548,410514,421748,432626,1111597,1112472,1113340,1114206
119,1125,2249,3346,4491,6788,7804,8991,10042,31558,33665,35961,38251,107976,112383,116792,121200,404576,415680,427055,438070,1125586,1126472,1127351,1128228
120,1139,2277,3388,4547,6873,7901,9103,10167,31952,34085,36410,38728,109324,113786,118250,122713,409625,420868,432385,443537,1139633,1140530,1141420,1142308
121,1153,2305,3430,4603,6958,7999,9216,10293,32347,34507,36861,39207,110677,115194,119714,124232,414695,426077,437736,449027,1153738,1154646,1155547,1156446
122,1167,2333,3472,4660,7043,8097,9329,10419,32744,34931,37313,39688,112036,116608,121183,125757,419786,431307,443109,454539,1167901,1168820,1169732,1170642
123,1181,2361,3514,4717,7129,8196,9443,10546,33143,35356,37767,40171,113400,118028,122658,127288,424897,436559,448504,460073,1182121,1183051,1183974,1184895
124,1195,2390,3556,4774,7215,8295,9557,10673,33543,35783,38223,40656,114770,119453,124139,128825,430029,441832,453921,465630,1196398,1197339,1198274,1199206
125,1209,2419,3599,4831,7301,8394,9671,10801,33945,36212,38681,41143,116145,120884,125626,130368,435181,447126,459359,471209,1210732,1211685,1212631,1213574
126,1223,2448,3642,4888,7388,8494,9786,10929,34348,36642,39141,41632,117526,122321,127119,131918,440354,452441,464819,476810,1225123,1226087,1227045,1227999
127,1237,2477,3685,4946,7475,8594,9901,11058,34753,37074,39603,42123,118912,123763,128618,133474,445547,457777,470300,482433,1239571,1240546,1241515,1242481
128,1251,2506,3728,5004,7562,8695,10017,11187,35160,37508,40066,42616,120303,125211,130123,135036,450760,463133,475803,488078,1254075,1255061,1256042,1257019
129,1266,2535,3771,5062,7650,8796,10133,11317,35568,37944,40531,43111,121700,126665,131634,136604,455993,468510,481327,493745,1268635,1269632,1270625,1271613
130,1281,2564,3814,5120,7738,8897,10250,11447,35978,38381,40998,43608,123102,128124,133151,138178,461246,473908,486872,499433,1283251,1284259,1285264,1286263
131,1296,2593,3858,5179,7826,8999,10367,11578,36389,38820,41467,44107,124509,129589,134673,139758,466520,479326,492438,505143,1297923,1298942,1299959,1300969
132,1311,2622,3902,5238,7915,9101,10485,11709,36802,39261,41938,44608,125922,131059,136201,141344,471813,484765,498026,510875,1312650,1313681,1314709,1315731
133,1326,2652,3946,5297,8004,9203,10603,11841,37216,39703,42410,45110,127340,132535,137735,142936,477126,490224,503634,516628,1327432,1328475,1329514,1330548
134,1341,2682,3990,5356,8093,9306,10722,11973,37632,40147,42884,45614,128763,134016,139275,144534,482459,495703,509263,522403,1342269,1343324,1344375,1345420
135,1356,2712,4034,5415,8183,9409,10841,12106,38049,40592,43360,46120,130192,135503,140820,146138,487812,501203,514913,528199,1357161,1358228,1359291,1360347
136,1371,2742,4078,5475,8273,9513,10960,12239,38468,41039,43838,46628,131626,136995,142371,147747,493184,506723,520584,534016,1372108,1373187,1374261,1375329
137,1386,2772,4123,5535,8363,9617,11080,12373,38889,41488,44317,47138,133065,138493,143928,149362,498576,512263,526276,539854,1387109,1388200,1389286,1390366
138,1401,2802,4168,5595,8454,9721,11200,12507,39311,41938,44798,47650,134509,139996,145490,150983,503988,517823,531988,545714,1402165,1403267,1404365,1405457
139,1416,2832,4213,5655,8545,9826,11321,12642,39735,42390,45281,48164,135958,141505,147058,152610,509419,523403,537721,551595,1417275,1418388,1419498,1420602
140,1431,2862,4258,5716,8636,9931,11442,12777,40160,42844,45765,48679,137413,143019,148631,154243,514869,529003,543474,557497,1432439,1433563,1434685,1435801
141,1446,2892,4303,5777,8728,10036,11564,12913,40587,43299,46251,49196,138873,144538,150210,155882,520339,534623,549247,563419,1447656,1448792,1449926,1451054
142,1461,2922,4348,5838,8820,10142,11686,13049,41015,43756,46739,49715,140338,146063,151794,157526,525828,540263,555041,569362,1462927,1464075,1465221,1466361
143,1476,2953,4394,5899,8912,10248,11808,13186,41445,44214,47229,50236,141808,147593,153384,159176,531336,545922,560855,575326,1478251,1479411,1480569,1481721
144,1491,2984,4440,5960,9005,10355,11931,13323,41876,44674,47720,50759,143283,149128,154980,160832,536863,551601,566689,581311,1493628,1494800,1495970,1497134
145,1506,3015,4486,6022,9098,10462,12054,13461,42309,45136,48213,51283,144763,150669,156581,162493,542409,557299,572543,587316,1509058,1510242,1511424,1512600
146,1521,3046,4532,6084,9191,10569,12178,13599,42743,45599,48708,51809,146248,152215,158187,164160,547974,563017,578417,593342,1524541,1525737,1526931,1528119
147,1537,3077,4578,6146,9285,10677,12302,13738,43179,46064,49204,52337,147738,153766,159799,165833,553558,568754,584311,599388,1540076,1541285,1542491,1543691
148,1553,3108,4624,6208,9379,10785,12427,13877,43616,46530,49702,52867,149233,155322,161416,167511,559161,574511,590225,605455,1555664,1556885,1558103,1559315
149,1569,3139,4671,6270,9473,10893,12552,14017,44054,46998,50202,53399,150733,156884,163039,169195,564783,580287,596159,611542,1571304,1572537,1573767,1574992
150,1585,3170,4718,6333,9568,11002,12677,14157,44494,47467,50703,53932,152238,158451,164667,170885,570423,586082,602113,617649,1586996,1588241,1589484,1590721
151,1601,3201,4765,6396,9663,11111,12803,14298,44935,47938,51206,54467,153748,160023,166301,172580,576082,591896,608086,623776,1602740,1603997,1605253,1606502
152,1617,3233,4812,6459,9758,11220,12929,14439,45378,48411,51711,55004,155263,161600,167940,174281,581760,597729,614079,629924,1618536,1619805,1621073,1622335
153,1633,3265,4859,6522,9854,11330,13056,14580,45822,48885,52217,55543,156783,163182,169584,175987,587456,603581,620091,636092,1634383,1635665,1636945,1638219
154,1649,3297,4906,6585,9950,11440,13183,14722,46268,49361,52725,56083,158308,164769,171234,177699,593171,609452,626123,642280,1650282,1651576,1652868,1654155
155,1665,3329,4953,6649,10046,11551,13310,14864,46715,49838,53235,56625,159838,166361,172889,179416,598904,615342,632174,648488,1666232,1667538,1668843,1670142
156,1681,3361,5001,6713,10142,11662,13438,15007,47164,50317,53746,57169,161373,167959,174549,181139,604655,621251,638245,654715,1682233,1683551,1684869,1686180
157,1697,3393,5049,6777,10239,11773,13566,15150,47614,50797,54259,57715,162913,169562,176214,182867,610425,627179,644335,660962,1698285,1699615,1700946,1702269
158,1713,3425,5097,6841,10336,11885,13695,15294,48065,51279,54773,58262,164458,171170,177885,184601,616213,633126,650444,667229,1714387,1715730,1717074,1718409
159,1729,3457,5145,6906,10433,11997,13824,15438,48518,51762,55289,58811,166008,172783,179561,186340,622019,639091,656572,673516,1730540,1731896,1733252,1734600
160,1745,3489,5193,6971,10531,12109,13953,15583,48972,52247,55807,59362,167562,174401,181242,188085,627843,645075,662720,679822,1746743,1748112,1749481,1750841
161,1761,3521,5241,7036,10629,12222,14083,15728,49428,52733,56326,59914,169121,176024,182928,189835,633685,651077,668887,686148,1762997,1764378,1765760,1767133
162,1777,3554,5290,7101,10727,12335,14213,15874,49885,53221,56847,60468,170685,177652,184620,191590,639545,657098,675073,692493,1779301,1780694,1782089,1783475
163,1793,3587,5339,7166,10826,12448,14344,16020,50343,53710,57369,61024,172254,179285,186317,193351,645423,663137,681278,698858,1795655,1797060,1798468,1799867
164,1809,3620,5388,7232,10925,12562,14475,16166,50803,54201,57893,61581,173828,180923,188019,195117,651319,669195,687502,705242,1812058,1813476,1814897,1816309
165,1825,3653,5437,7298,11024,12676,14606,16313,51264,54693,58419,62140,175406,182566,189726,196889,657233,675271,693744,711645,1828511,1829942,1831376,1832801
166,1841,3686,5486,7364,11124,12790,14738,16460,51727,55187,58946,62701,176989,184214,191438,198666,663165,681365,700005,718068,1845013,1846457,1847904,1849342
167,1858,3719,5535,7430,11224,12905,14870,16608,52191,55682,59475,63264,178577,185867,193155,200448,669114,687478,706285,724510,1861565,1863022,1864482,1865933
168,1875,3752,5584,7496,11324,13020,15003,16756,52656,56179,60005,63828,180170,187525,194878,202236,675081,693609,712584,730971,1878166,1879636,1881109,1882573
169,1892,3785,5634,7562,11424,13135,15136,16905,53123,56677,60537,64394,181767,189187,196606,204029,681066,699758,718901,737451,1894816,1896299,1897785,1899262
170,1909,3818,5684,7629,11525,13251,15269,17054,53591,57177,61071,64962,183369,190854,198339,205827,687068,705925,725237,743950,1911515,1913011,1914510,1916000
171,1926,3851,5734,7696,11626,13367,15403,17204,54061,57678,61606,65531,184976,192526,200077,207630,693088,712110,731591,750468,1928263,1929772,1931284,1932787
172,1943,3885,5784,7763,11727,13483,15537,17354,54532,58180,62143,66102,186587,194203,201820,209439,699125,718313,737964,757005,1945059,1946581,1948107,1949623
173,1960,3919,5834,7830,11829,13600,15672,17504,55004,58684,62681,66674,188203,195885,203568,211253,705180,724534,744355,763561,1961904,1963439,1964978,1966507
174,1977,3953,5884,7897,11931,13717,15807,17655,55478,59189,63221,67248,189824,197572,205321,213072,711252,730773,750764,770136,1978797,1980345,1981898,1983440
175,1994,3987,5934,7965,12033,13834,15942,17806,55953,59696,63762,67824,191449,199263,207079,214896,717341,737029,757192,776729,1995738,1997300,1998866,2000421
176,2011,4021,5985,8033,12135,13952,16078,17958,56429,60204,64305,68401,193079,200959,208842,216725,723448,743303,763638,783341,2012727,2014303,2015882,2017450
177,2028,4055,6036,8101,12238,14070,16214,18110,56907,60714,64849,68980,194713,202660,210610,218559,729572,749595,770102,789972,2029764,2031354,2032946,2034527
178,2045,4089,6087,8169,12341,14188,16350,18263,57386,61225,65395,69561,196352,204366,212383,220399,735713,755905,776584,796621,2046849,2048452,2050058,2051652
179,2062,4123,6138,8237,12444,14307,16487,18416,57866,61738,65942,70143,197996,206077,214161,222244,741871,762232,783084,803289,2063982,2065598,2067218,2068825
180,2079,4157,6189,8306,12548,14426,16624,18569,58348,62252,66491,70727,199644,207792,215944,224094,748046,768577,789602,809975,2081162,2082792,2084425,2086046
181,2096,4191,6240,8375,12652,14545,16762,18723,58831,62767,67041,71312,201297,209512,217732,225949,754238,774939,796138,816680,2098390,2100033,2101680,2103314
182,2113,4225,6291,8444,12756,14665,16900,18877,59315,63284,67593,71899,202954,211237,219524,227809,760447,781319,802692,823403,2115665,2117321,2118982,2120630
183,2130,4260,6343,8513,12860,14785,17038,19032,59801,63802,68146,72488,204616,212966,221321,229674,766673,787716,809264,830145,2132987,2134657,2136331,2137993
184,2147,4295,6395,8582,12965,14905,17177,19187,60288,64322,68701,73078,206282,214700,223123,231544,772916,794130,815854,836905,2150356,2152040,2153727,2155403
185,2164,4330,6447,8652,13070,15026,17316,19342,60776,64843,69257,73670,207953,216439,224930,233419,779176,800562,822462,843683,2167772,2169470,2171170,2172860
186,2181,4365,6499,8722,13175,15147,17455,19498,61266,65365,69815,74263,209628,218183,226742,235299,785453,807011,829087,850479,2185235,2186946,2188660,2190364
187,2198,4400,6551,8792,13281,15268,17595,19654,61757,65889,70374,74858,211308,219931,228559,237184,791746,813477,835730,857294,2202744,2204469,2206197,2207914
188,2216,4435,6603,8862,13387,15390,17735,19811,62249,66414,70935,75455,212992,221684,230381,239074,798056,819960,842391,864127,2220300,2222039,2223780,2225511
189,2234,4470,6655,8932,13493,15512,17876,19968,62742,66941,71497,76053,214681,223441,232207,240969,804383,826461,849069,870978,2237902,2239655,2241410,2243155
190,2252,4505,6708,9002,13599,15634,18017,20126,63237,67469,72061,76653,216374,225203,234038,242869,810727,832979,855765,877847,2255550,2257317,2259086,2260845
191,2270,4540,6761,9073,13706,15757,18158,20284,63733,67998,72626,77254,218071,226970,235874,244774,817087,839514,862478,884734,2273245,2275025,2276808,2278581
192,2288,4575,6814,9144,13813,15880,18300,20442,64230,68529,73193,77857,219773,228741,237715,246684,823464,846066,869209,891639,2290986,2292780,2294576,2296363
193,2306,4611,6867,9215,13920,16003,18442,20601,64729,69061,73761,78461,221479,230517,239561,248599,829857,852635,875957,898561,2308773,2310580,2312390,2314191
194,2324,4647,6920,9286,14028,16127,18584,20760,65229,69594,74331,79067,223190,232297,241411,250519,836267,859221,882723,905501,2326605,2328426,2330250,2332065
195,2342,4683,6973,9357,14136,16251,18727,20920,65730,70129,74902,79675,224905,234082,243266,252444,842693,865823,889506,912459,2344483,2346318,2348156,2349985
196,2360,4719,7026,9429,14244,16375,18870,21080,66232,70665,75475,80284,226624,235872,245126,254374,849135,872442,896306,919435,2362407,2364256,2366108,2367951
197,2378,4755,7079,9501,14352,16500,19014,21240,66736,71203,76049,80895,228348,237666,246990,256309,855594,879078,903124,926428,2380376,2382239,2384105,2385962
198,2396,4791,7133,9573,14461,16625,19158,21401,67241,71742,76625,81507,230076,239465,248859,258249,862069,885731,909959,933439,2398390,2400267,2402148,2404019
199,2414,4827,7187,9645,14570,16750,19302,21562,67747,72282,77202,82121,231808,241268,250733,260194,868560,892400,916811,940468,2416450,2418341,2420236,2422121
200,2432,4863,7241,9717,14679,16875,19447,21724,68255,72824,77780,82736,233545,243076,252612,262143,875067,899086,923680,947514,2434555,2436460,2438369,2440268
201,2450,4899,7295,9789,14788,17001,19592,21886,68764,73367,78360,83353,235286,244888,254495,264097,881591,905789,930566,954578,2452705,2454624,2456547,2458460
202,2468,4935,7349,9862,14898,17127,19737,22048,69274,73911,78941,83971,237031,246705,256383,266056,888131,912508,937469,961659,2470899,2472833,2474770,2476697
203,2486,4971,7403,9935,15008,17253,19883,22211,69785,74457,79524,84591,238781,248526,258275,268020,894687,919244,944389,968758,2489138,2491086,2493038,2494979
204,2504,5008,7457,10008,15118,17380,20029,22374,70298,75004,80108,85212,240535,250352,260172,269989,901259,925996,951326,975874,2507422,2509384,2511350,2513306
205,2522,5045,7512,10081,15229,17507,20175,22538,70812,75552,80694,85835,242293,252182,262074,271962,907847,932765,958280,983007,2525750,2527727,2529707,2531677
206,2540,5082,7567,10154,15340,17634,20322,22702,71327,76102,81281,86459,244055,254016,263980,273940,914451,939550,965251,990158,2544123,2546114,2548109,2550093
207,2558,5119,7622,10228,15451,17762,20469,22866,71843,76653,81869,87085,245822,255855,265891,275923,921071,946352,972239,997326,2562540,2564546,2566555,2568553
208,2576,5156,7677,10302,15562,17890,20616,23031,72361,77205,82459,87712,247593,257698,267807,277911,927707,953170,979243,1004511,2581001,2583022,2585045,2587058
209,2594,5193,7732,10376,15674,18018,20764,23196,72880,77759,83050,88341,249368,259546,269727,279904,934359,960004,986264,1011713,2599506,2601542,2603579,2605607
210,2613,5230,7787,10450,15786,18147,20912,23362,73400,78314,83643,88971,251147,261398,271652,281901,941026,966854,993302,1018932,2618055,2620106,2622158,2624200
211,2632,5267,7842,10524,15898,18276,21061,23528,73921,78870,84237,89603,252931,263254,273581,283903,947709,973721,1000356,1026168,2636648,2638714,2640781,2642837
212,2651,5304,7897,10598,16010,18405,21210,23694,74443,79428,84832,90236,254719,265115,275515,285910,954408,980604,1007427,1033421,2655285,2657366,2659447,2661518
213,2670,5341,7953,10673,16123,18534,21359,23861,74967,79987,85429,90871,256511,266980,277453,287921,961123,987503,1014515,1040691,2673966,2676062,2678157,2680243
214,2689,5378,8009,10748,16236,18664,21509,24028,75492,80547,86027,91507,258307,268850,279396,289937,967853,994418,1021619,1047978,2692690,2694801,2696911,2699011
215,2708,5415,8065,10823,16349,18794,21659,24196,76018,81108,86627,92145,260107,270724,281343,291958,974599,1001349,1028740,1055282,2711458,2713584,2715708,2717823
216,2727,5453,8121,10898,16462,18924,21809,24364,76545,81671,87228,92784,261912,272602,283295,293984,981360,1008296,1035877,1062603,2730269,2732410,2734549,2736679
217,2746,5491,8177,10973,16576,19055,21960,24532,77074,82235,87830,93425,263721,274485,285251,296014,988137,1015259,1043031,1069941,2749124,2751279,2753433,2755578
218,2765,5529,8233,11048,16690,19186,22111,24701,77604,82800,88434,94067,265534,276372,287212,298049,994930,1022238,1050201,1077296,2768022,2770192,2772360,2774520
219,2784,5567,8289,11124,16804,19317,22262,24870,78135,83367,89039,94711,267351,278263,289177,300088,1001738,1029233,1057387,1084668,2786963,2789148,2791331,2793505
220,2803,5605,8345,11200,16918,19449,22414,25039,78667,83935,89646,95356,269172,280158,291147,302132,1008562,1036244,1064590,1092056,2805947,2808147,2810345,2812534
221,2822,5643,8402,11276,17033,19581,22566,25209,79200,84504,90254,96003,270997,282058,293121,304181,1015401,1043271,1071809,1099461,2824974,2827189,2829402,2831606
222,2841,5681,8459,11352,17148,19713,22718,25379,79735,85074,90863,96651,272826,283962,295100,306234,1022255,1050313,1079044,1106883,2844044,2846274,2848502,2850720
223,2860,5719,8516,11428,17263,19845,22871,25550,80271,85646,91474,97301,274659,285870,297083,308292,1029125,1057371,1086295,1114321,2863156,2865401,2867644,2869877
224,2879,5757,8573,11505,17379,19978,23024,25721,80808,86219,92086,97952,276497,287783,299071,310355,1036010,1064445,1093563,1121776,2882311,2884571,2886829,2889077
225,2898,5795,8630,11582,17495,20111,23177,25892,81346,86793,92699,98604,278339,289700,301063,312422,1042910,1071535,1100847,1129248,2901509,2903784,2906057,2908320
226,2917,5833,8687,11659,17611,20244,23331,26064,81885,87369,93314,99258,280185,291621,303059,314494,1049826,1078640,1108147,1136736,2920749,2923039,2925327,2927605
227,2936,5872,8744,11736,17727,20378,23485,26236,82426,87946,93930,99913,282035,293546,305060,316570,1056757,1085761,1115463,1144241,2940031,2942336,2944639,2946933
228,2955,5911,8802,11813,17844,20512,23639,26409,82968,88524,94547,100570,283889,295475,307065,318651,1063703,1092898,1122795,1151762,2959356,2961676,2963994,2966303
229,2974,5950,8860,11890,17961,20646,23794,26582,83511,89103,95166,101228,285747,297409,309074,320736,1070664,1100050,1130143,1159299,2978723,2981058,2983391,2985715
230,2993,5989,8918,11968,18078,20781,23949,26755,84055,89684,95786,101888,287609,299347,311088,322826,1077640,1107218,1137507,1166853,2998132,3000482,3002830,3005169
231,3012,6028,8976,12046,18195,20916,24104,26929,84600,90266,96407,102549,289475,301289,313106,324920,1084631,1114401,1144887,1174423,3017583,3019948,3022311,3024665
232,3031,6067,9034,12124,18313,21051,24260,27103,85146,90849,97030,103211,291345,303235,315129,327019,1091637,1121600,1152283,1182009,3037076,3039456,3041834,3044203
233,3051,6106,9092,12202,18431,21186,24416,27277,85694,91433,97654,103875,293219,305185,317156,329122,1098658,1128814,1159694,1189612,3056610,3059006,3061399,3063783
234,3071,6145,9150,12280,18549,21322,24572,27452,86243,92019,98279,104540,295097,307140,319187,331230,1105694,1136043,1167121,1197231,3076186,3078597,3081006,3083405
235,3091,6184,9208,12358,18667,21458,24729,27627,86793,92606,98906,105207,296979,309099,321223,333342,1112745,1143288,1174564,1204866,3095804,3098230,3100654,3103069
236,3111,6223,9267,12437,18786,21594,24886,27803,87344,93194,99534,105875,298865,311062,323263,335459,1119811,1150548,1182023,1212517,3115463,3117905,3120344,3122774
237,3131,6262,9326,12516,18905,21731,25043,27979,87896,93783,100163,106545,300755,313029,325307,337580,1126892,1157823,1189498,1220184,3135164,3137621,3140075,3142521
238,3151,6301,9385,12595,19024,21868,25201,28155,88449,94374,100794,107216,302649,315000,327355,339706,1133988,1165114,1196988,1227867,3154906,3157378,3159848,3162309
239,3171,6341,9444,12674,19143,22005,25359,28332,89004,94966,101426,107888,304547,316975,329408,341836,1141099,1172420,1204494,1235566,3174689,3177177,3179662,3182139
240,3191,6381,9503,12753,19263,22142,25517,28509,89560,95559,102059,108562,306449,318954,331465,343971,1148225,1179741,1212015,1243282,3194513,3197017,3199517,3202010
241,3211,6421,9562,12832,19383,22280,25676,28686,90117,96153,102694,109237,308355,320937,333526,346110,1155365,1187077,1219552,1251014,3214378,3216898,3219414,3221922
242,3231,6461,9621,12912,19503,22418,25835,28864,90675,96748,103330,109914,310265,322925,335591,348253,1162520,1194429,1227105,1258761,3234284,3236820,3239352,3241875
243,3251,6501,9680,12992,19623,22556,25994,29042,91234,97345,103967,110592,312179,324917,337661,350401,1169690,1201796,1234673,1266524,3254231,3256783,3259331,3261869
244,3271,6541,9739,13072,19744,22695,26154,29220,91794,97943,104606,111271,314096,326913,339735,352553,1176874,1209178,1242257,1274303,3274219,3276787,3279351,3281904
245,3291,6581,9799,13152,19865,22834,26314,29399,92356,98542,105246,111952,316017,328913,341813,354710,1184073,1216575,1249856,1282098,3294248,3296832,3299411,3301980
246,3311,6621,9859,13232,19986,22973,26474,29578,92919,99142,105887,112634,317942,330917,343895,356871,1191287,1223987,1257471,1289909,3314318,3316917,3319512,3322097
247,3331,6661,9919,13312,20107,23112,26635,29758,93483,99744,106530,113317,319871,332925,345982,359036,1198515,1231414,1265101,1297736,3334428,3337043,3339654,3342254
248,3351,6701,9979,13392,20229,23252,26796,29938,94048,100347,107174,114002,321804,334937,348073,361206,1205758,1238856,1272746,1305579,3354579,3357209,3359836,3362452
249,3371,6741,10039,13473,20351,23392,26957,30118,94614,100951,107819,114688,323741,336953,350168,363380,1213015,1246313,1280407,1313437,3374770,3377416,3380059,3382691
250,3391,6781,10099,13554,20473,23532,27119,30299,95181,101556,108465,115376,325682,338973,352267,365558,1220287,1253785,1288083,1321311,3395001,3397663,3400322,3402970
